%!PS-Adobe-3.0 EPSF-3.0
%%Creator: MATLAB, The MathWorks, Inc. Version 8.1.0.604 (R2013a). Operating System: Linux 3.13.0-43-generic #72-Ubuntu SMP Mon Dec 8 19:35:06 UTC 2014 x86_64.
%%Title: ./diag008Mesh.eps
%%CreationDate: 01/12/2015  11:02:23
%%DocumentNeededFonts: Helvetica
%%DocumentProcessColors: Cyan Magenta Yellow Black
%%LanguageLevel: 2
%%Pages: 1
%%BoundingBox:   125   215   499   589
%%EndComments

%%BeginProlog
% MathWorks dictionary
/MathWorks 160 dict begin
% definition operators
/bdef {bind def} bind def
/ldef {load def} bind def
/xdef {exch def} bdef
/xstore {exch store} bdef
% operator abbreviations
/c  /clip ldef
/cc /concat ldef
/cp /closepath ldef
/gr /grestore ldef
/gs /gsave ldef
/mt /moveto ldef
/np /newpath ldef
/cm /currentmatrix ldef
/sm /setmatrix ldef
/rm /rmoveto ldef
/rl /rlineto ldef
/s {show newpath} bdef
/sc {setcmykcolor} bdef
/sr /setrgbcolor ldef
/sg /setgray ldef
/w /setlinewidth ldef
/j /setlinejoin ldef
/cap /setlinecap ldef
/rc {rectclip} bdef
/rf {rectfill} bdef
% page state control
/pgsv () def
/bpage {/pgsv save def} bdef
/epage {pgsv restore} bdef
/bplot /gsave ldef
/eplot {stroke grestore} bdef
% orientation switch
/portraitMode 0 def /landscapeMode 1 def /rotateMode 2 def
% coordinate system mappings
/dpi2point 0 def
% font control
/FontSize 0 def
/FMS {/FontSize xstore findfont [FontSize 0 0 FontSize neg 0 0]
  makefont setfont} bdef
/reencode {exch dup where {pop load} {pop StandardEncoding} ifelse
  exch dup 3 1 roll findfont dup length dict begin
  { 1 index /FID ne {def}{pop pop} ifelse } forall
  /Encoding exch def currentdict end definefont pop} bdef
/isroman {findfont /CharStrings get /Agrave known} bdef
/FMSR {3 1 roll 1 index dup isroman {reencode} {pop pop} ifelse
  exch FMS} bdef
/csm {1 dpi2point div -1 dpi2point div scale neg translate
 dup landscapeMode eq {pop -90 rotate}
  {rotateMode eq {90 rotate} if} ifelse} bdef
% line types: solid, dotted, dashed, dotdash
/SO { [] 0 setdash } bdef
/DO { [.5 dpi2point mul 4 dpi2point mul] 0 setdash } bdef
/DA { [6 dpi2point mul] 0 setdash } bdef
/DD { [.5 dpi2point mul 4 dpi2point mul 6 dpi2point mul 4
  dpi2point mul] 0 setdash } bdef
% macros for lines and objects
/L {lineto stroke} bdef
/MP {3 1 roll moveto 1 sub {rlineto} repeat} bdef
/AP {{rlineto} repeat} bdef
/PDlw -1 def
/W {/PDlw currentlinewidth def setlinewidth} def
/PP {closepath eofill} bdef
/DP {closepath stroke} bdef
/MR {4 -2 roll moveto dup  0 exch rlineto exch 0 rlineto
  neg 0 exch rlineto closepath} bdef
/FR {MR stroke} bdef
/PR {MR fill} bdef
/L1i {{currentfile picstr readhexstring pop} image} bdef
/tMatrix matrix def
/MakeOval {newpath tMatrix currentmatrix pop translate scale
0 0 1 0 360 arc tMatrix setmatrix} bdef
/FO {MakeOval stroke} bdef
/PO {MakeOval fill} bdef
/PD {currentlinewidth 2 div 0 360 arc fill
   PDlw -1 eq not {PDlw w /PDlw -1 def} if} def
/FA {newpath tMatrix currentmatrix pop translate scale
  0 0 1 5 -2 roll arc tMatrix setmatrix stroke} bdef
/PA {newpath tMatrix currentmatrix pop	translate 0 0 moveto scale
  0 0 1 5 -2 roll arc closepath tMatrix setmatrix fill} bdef
/FAn {newpath tMatrix currentmatrix pop translate scale
  0 0 1 5 -2 roll arcn tMatrix setmatrix stroke} bdef
/PAn {newpath tMatrix currentmatrix pop translate 0 0 moveto scale
  0 0 1 5 -2 roll arcn closepath tMatrix setmatrix fill} bdef
/vradius 0 def /hradius 0 def /lry 0 def
/lrx 0 def /uly 0 def /ulx 0 def /rad 0 def
/MRR {/vradius xdef /hradius xdef /lry xdef /lrx xdef /uly xdef
  /ulx xdef newpath tMatrix currentmatrix pop ulx hradius add uly
  vradius add translate hradius vradius scale 0 0 1 180 270 arc 
  tMatrix setmatrix lrx hradius sub uly vradius add translate
  hradius vradius scale 0 0 1 270 360 arc tMatrix setmatrix
  lrx hradius sub lry vradius sub translate hradius vradius scale
  0 0 1 0 90 arc tMatrix setmatrix ulx hradius add lry vradius sub
  translate hradius vradius scale 0 0 1 90 180 arc tMatrix setmatrix
  closepath} bdef
/FRR {MRR stroke } bdef
/PRR {MRR fill } bdef
/MlrRR {/lry xdef /lrx xdef /uly xdef /ulx xdef /rad lry uly sub 2 div def
  newpath tMatrix currentmatrix pop ulx rad add uly rad add translate
  rad rad scale 0 0 1 90 270 arc tMatrix setmatrix lrx rad sub lry rad
  sub translate rad rad scale 0 0 1 270 90 arc tMatrix setmatrix
  closepath} bdef
/FlrRR {MlrRR stroke } bdef
/PlrRR {MlrRR fill } bdef
/MtbRR {/lry xdef /lrx xdef /uly xdef /ulx xdef /rad lrx ulx sub 2 div def
  newpath tMatrix currentmatrix pop ulx rad add uly rad add translate
  rad rad scale 0 0 1 180 360 arc tMatrix setmatrix lrx rad sub lry rad
  sub translate rad rad scale 0 0 1 0 180 arc tMatrix setmatrix
  closepath} bdef
/FtbRR {MtbRR stroke } bdef
/PtbRR {MtbRR fill } bdef
/stri 6 array def /dtri 6 array def
/smat 6 array def /dmat 6 array def
/tmat1 6 array def /tmat2 6 array def /dif 3 array def
/asub {/ind2 exch def /ind1 exch def dup dup
  ind1 get exch ind2 get sub exch } bdef
/tri_to_matrix {
  2 0 asub 3 1 asub 4 0 asub 5 1 asub
  dup 0 get exch 1 get 7 -1 roll astore } bdef
/compute_transform {
  dmat dtri tri_to_matrix tmat1 invertmatrix 
  smat stri tri_to_matrix tmat2 concatmatrix } bdef
/ds {stri astore pop} bdef
/dt {dtri astore pop} bdef
/db {2 copy /cols xdef /rows xdef mul dup 3 mul string
  currentfile 
  3 index 0 eq {/ASCIIHexDecode filter}
  {/ASCII85Decode filter 3 index 2 eq {/RunLengthDecode filter} if }
  ifelse exch readstring pop
  dup 0 3 index getinterval /rbmap xdef
  dup 2 index dup getinterval /gbmap xdef
  1 index dup 2 mul exch getinterval /bbmap xdef pop pop}bdef
/it {gs np dtri aload pop moveto lineto lineto cp c
  cols rows 8 compute_transform 
  rbmap gbmap bbmap true 3 colorimage gr}bdef
/il {newpath moveto lineto stroke}bdef
currentdict end def
%%EndProlog

%%BeginSetup
MathWorks begin

0 cap

end
%%EndSetup

%%Page: 1 1
%%BeginPageSetup
%%PageBoundingBox:   125   215   499   589
MathWorks begin
bpage
%%EndPageSetup

%%BeginObject: obj1
bplot

/dpi2point 12 def
portraitMode 0216 7344 csm

 1293   273  4479  4488 rc
85 dict begin %Colortable dictionary
/c0 { 0.000000 0.000000 0.000000 sr} bdef
/c1 { 1.000000 1.000000 1.000000 sr} bdef
/c2 { 0.900000 0.000000 0.000000 sr} bdef
/c3 { 0.000000 0.820000 0.000000 sr} bdef
/c4 { 0.000000 0.000000 0.800000 sr} bdef
/c5 { 0.910000 0.820000 0.320000 sr} bdef
/c6 { 1.000000 0.260000 0.820000 sr} bdef
/c7 { 0.000000 0.820000 0.820000 sr} bdef
c0
1 j
1 sg
   0    0 6913 5186 rf
6 w
0 4227 4227 0 0 -4227 1463 4615 4 MP
PP
-4227 0 0 4227 4227 0 0 -4227 1463 4615 5 MP stroke
4 w
DO
SO
6 w
0 sg
1463 4615 mt 5690 4615 L
1463 4615 mt 1463  388 L
1463 4615 mt 1463 4572 L
%%IncludeResource: font Helvetica
/Helvetica /ISOLatin1Encoding 120 FMSR

1360 4760 mt 
(-5) s
1886 4615 mt 1886 4572 L
1783 4760 mt 
(-4) s
2309 4615 mt 2309 4572 L
2206 4760 mt 
(-3) s
2731 4615 mt 2731 4572 L
2628 4760 mt 
(-2) s
3154 4615 mt 3154 4572 L
3051 4760 mt 
(-1) s
3577 4615 mt 3577 4572 L
3544 4760 mt 
(0) s
3999 4615 mt 3999 4572 L
3966 4760 mt 
(1) s
4422 4615 mt 4422 4572 L
4389 4760 mt 
(2) s
4844 4615 mt 4844 4572 L
4811 4760 mt 
(3) s
5267 4615 mt 5267 4572 L
5234 4760 mt 
(4) s
5690 4615 mt 5690 4572 L
5657 4760 mt 
(5) s
1463 4615 mt 1506 4615 L
1293 4659 mt 
(-5) s
1463 4192 mt 1506 4192 L
1293 4236 mt 
(-4) s
1463 3769 mt 1506 3769 L
1293 3813 mt 
(-3) s
1463 3347 mt 1506 3347 L
1293 3391 mt 
(-2) s
1463 2924 mt 1506 2924 L
1293 2968 mt 
(-1) s
1463 2501 mt 1506 2501 L
1363 2545 mt 
(0) s
1463 2079 mt 1506 2079 L
1363 2123 mt 
(1) s
1463 1656 mt 1506 1656 L
1363 1700 mt 
(2) s
1463 1234 mt 1506 1234 L
1363 1278 mt 
(3) s
1463  811 mt 1506  811 L
1363  855 mt 
(4) s
1463  388 mt 1506  388 L
1363  432 mt 
(5) s
gs 1463 388 4228 4228 rc
212 0 1463 4615 2 MP stroke
0 212 1463 4403 2 MP stroke
212 -212 1463 4615 2 MP stroke
212 0 5478 4615 2 MP stroke
0 -212 5690 4615 2 MP stroke
0 -212 5690 600 2 MP stroke
-212 0 5690 388 2 MP stroke
212 -212 5478 600 2 MP stroke
-212 0 1675 388 2 MP stroke
0 212 1463 388 2 MP stroke
211 0 1675 4615 2 MP stroke
0 -212 1675 4615 2 MP stroke
211 -212 1675 4615 2 MP stroke
211 0 1886 4615 2 MP stroke
0 -212 1886 4615 2 MP stroke
211 -212 1886 4615 2 MP stroke
212 0 2097 4615 2 MP stroke
0 -212 2097 4615 2 MP stroke
212 -212 2097 4615 2 MP stroke
211 0 2309 4615 2 MP stroke
0 -212 2309 4615 2 MP stroke
211 -212 2309 4615 2 MP stroke
211 0 2520 4615 2 MP stroke
0 -212 2520 4615 2 MP stroke
211 -212 2520 4615 2 MP stroke
212 0 2731 4615 2 MP stroke
0 -212 2731 4615 2 MP stroke
212 -212 2731 4615 2 MP stroke
211 0 2943 4615 2 MP stroke
0 -212 2943 4615 2 MP stroke
211 -212 2943 4615 2 MP stroke
211 0 3154 4615 2 MP stroke
0 -212 3154 4615 2 MP stroke
211 -212 3154 4615 2 MP stroke
212 0 3365 4615 2 MP stroke
0 -212 3365 4615 2 MP stroke
212 -212 3365 4615 2 MP stroke
211 0 3577 4615 2 MP stroke
0 -212 3577 4615 2 MP stroke
211 -212 3577 4615 2 MP stroke
211 0 3788 4615 2 MP stroke
0 -212 3788 4615 2 MP stroke
211 -212 3788 4615 2 MP stroke
211 0 3999 4615 2 MP stroke
0 -212 3999 4615 2 MP stroke
211 -212 3999 4615 2 MP stroke
212 0 4210 4615 2 MP stroke
0 -212 4210 4615 2 MP stroke
212 -212 4210 4615 2 MP stroke
211 0 4422 4615 2 MP stroke
0 -212 4422 4615 2 MP stroke
211 -212 4422 4615 2 MP stroke
211 0 4633 4615 2 MP stroke
0 -212 4633 4615 2 MP stroke
211 -212 4633 4615 2 MP stroke
212 0 4844 4615 2 MP stroke
0 -212 4844 4615 2 MP stroke
212 -212 4844 4615 2 MP stroke
211 0 5056 4615 2 MP stroke
0 -212 5056 4615 2 MP stroke
211 -212 5056 4615 2 MP stroke
211 0 5267 4615 2 MP stroke
0 -212 5267 4615 2 MP stroke
211 -212 5267 4615 2 MP stroke
212 -212 5478 4615 2 MP stroke
0 -212 5478 4615 2 MP stroke
0 -211 5690 4403 2 MP stroke
-212 0 5690 4403 2 MP stroke
0 -211 5690 4192 2 MP stroke
212 -211 5478 4403 2 MP stroke
-212 0 5690 4192 2 MP stroke
0 -212 5690 3981 2 MP stroke
212 -211 5478 4192 2 MP stroke
-212 0 5690 3981 2 MP stroke
0 -211 5690 3769 2 MP stroke
212 -212 5478 3981 2 MP stroke
-212 0 5690 3769 2 MP stroke
0 -211 5690 3558 2 MP stroke
212 -211 5478 3769 2 MP stroke
-212 0 5690 3558 2 MP stroke
0 -212 5690 3347 2 MP stroke
212 -211 5478 3558 2 MP stroke
-212 0 5690 3347 2 MP stroke
0 -211 5690 3135 2 MP stroke
212 -212 5478 3347 2 MP stroke
-212 0 5690 3135 2 MP stroke
0 -211 5690 2924 2 MP stroke
212 -211 5478 3135 2 MP stroke
-212 0 5690 2924 2 MP stroke
0 -212 5690 2713 2 MP stroke
212 -211 5478 2924 2 MP stroke
-212 0 5690 2713 2 MP stroke
0 -211 5690 2501 2 MP stroke
212 -212 5478 2713 2 MP stroke
-212 0 5690 2501 2 MP stroke
0 -211 5690 2290 2 MP stroke
212 -211 5478 2501 2 MP stroke
-212 0 5690 2290 2 MP stroke
0 -211 5690 2079 2 MP stroke
212 -211 5478 2290 2 MP stroke
-212 0 5690 2079 2 MP stroke
0 -212 5690 1868 2 MP stroke
212 -211 5478 2079 2 MP stroke
-212 0 5690 1868 2 MP stroke
0 -211 5690 1656 2 MP stroke
212 -212 5478 1868 2 MP stroke
-212 0 5690 1656 2 MP stroke
0 -211 5690 1445 2 MP stroke
212 -211 5478 1656 2 MP stroke
-212 0 5690 1445 2 MP stroke
0 -212 5690 1234 2 MP stroke
212 -211 5478 1445 2 MP stroke
-212 0 5690 1234 2 MP stroke
0 -211 5690 1022 2 MP stroke
212 -212 5478 1234 2 MP stroke
-212 0 5690 1022 2 MP stroke
0 -211 5690 811 2 MP stroke
212 -211 5478 1022 2 MP stroke
-212 0 5690 811 2 MP stroke
212 -211 5478 811 2 MP stroke
-212 0 5690 600 2 MP stroke
-211 0 5478 388 2 MP stroke
211 -212 5267 600 2 MP stroke
0 -212 5478 600 2 MP stroke
-211 0 5267 388 2 MP stroke
211 -212 5056 600 2 MP stroke
0 -212 5267 600 2 MP stroke
-212 0 5056 388 2 MP stroke
212 -212 4844 600 2 MP stroke
0 -212 5056 600 2 MP stroke
-211 0 4844 388 2 MP stroke
211 -212 4633 600 2 MP stroke
0 -212 4844 600 2 MP stroke
-211 0 4633 388 2 MP stroke
211 -212 4422 600 2 MP stroke
0 -212 4633 600 2 MP stroke
-212 0 4422 388 2 MP stroke
212 -212 4210 600 2 MP stroke
0 -212 4422 600 2 MP stroke
-211 0 4210 388 2 MP stroke
211 -212 3999 600 2 MP stroke
0 -212 4210 600 2 MP stroke
-211 0 3999 388 2 MP stroke
211 -212 3788 600 2 MP stroke
0 -212 3999 600 2 MP stroke
-211 0 3788 388 2 MP stroke
211 -212 3577 600 2 MP stroke
0 -212 3788 600 2 MP stroke
-212 0 3577 388 2 MP stroke
212 -212 3365 600 2 MP stroke
0 -212 3577 600 2 MP stroke
-211 0 3365 388 2 MP stroke
211 -212 3154 600 2 MP stroke
0 -212 3365 600 2 MP stroke
-211 0 3154 388 2 MP stroke
211 -212 2943 600 2 MP stroke
0 -212 3154 600 2 MP stroke
-212 0 2943 388 2 MP stroke
212 -212 2731 600 2 MP stroke
0 -212 2943 600 2 MP stroke
-211 0 2731 388 2 MP stroke
211 -212 2520 600 2 MP stroke
0 -212 2731 600 2 MP stroke
-211 0 2520 388 2 MP stroke
211 -212 2309 600 2 MP stroke
0 -212 2520 600 2 MP stroke
-212 0 2309 388 2 MP stroke
212 -212 2097 600 2 MP stroke
0 -212 2309 600 2 MP stroke
-211 0 2097 388 2 MP stroke
211 -212 1886 600 2 MP stroke
0 -212 2097 600 2 MP stroke
-211 0 1886 388 2 MP stroke
211 -212 1675 600 2 MP stroke
0 -212 1886 600 2 MP stroke
212 -212 1463 600 2 MP stroke
0 -212 1675 600 2 MP stroke
0 211 1463 600 2 MP stroke
-212 0 1675 600 2 MP stroke
0 211 1463 811 2 MP stroke
-212 0 1675 811 2 MP stroke
212 -211 1463 811 2 MP stroke
0 212 1463 1022 2 MP stroke
-212 0 1675 1022 2 MP stroke
212 -211 1463 1022 2 MP stroke
0 211 1463 1234 2 MP stroke
-212 0 1675 1234 2 MP stroke
212 -212 1463 1234 2 MP stroke
0 211 1463 1445 2 MP stroke
-212 0 1675 1445 2 MP stroke
212 -211 1463 1445 2 MP stroke
0 212 1463 1656 2 MP stroke
-212 0 1675 1656 2 MP stroke
212 -211 1463 1656 2 MP stroke
0 211 1463 1868 2 MP stroke
-212 0 1675 1868 2 MP stroke
212 -212 1463 1868 2 MP stroke
0 211 1463 2079 2 MP stroke
-212 0 1675 2079 2 MP stroke
212 -211 1463 2079 2 MP stroke
0 211 1463 2290 2 MP stroke
-212 0 1675 2290 2 MP stroke
212 -211 1463 2290 2 MP stroke
0 212 1463 2501 2 MP stroke
-212 0 1675 2501 2 MP stroke
212 -211 1463 2501 2 MP stroke
0 211 1463 2713 2 MP stroke
-212 0 1675 2713 2 MP stroke
212 -212 1463 2713 2 MP stroke
0 211 1463 2924 2 MP stroke
-212 0 1675 2924 2 MP stroke
212 -211 1463 2924 2 MP stroke
0 212 1463 3135 2 MP stroke
-212 0 1675 3135 2 MP stroke
212 -211 1463 3135 2 MP stroke
0 211 1463 3347 2 MP stroke
-212 0 1675 3347 2 MP stroke
212 -212 1463 3347 2 MP stroke
0 211 1463 3558 2 MP stroke
-212 0 1675 3558 2 MP stroke
212 -211 1463 3558 2 MP stroke
0 212 1463 3769 2 MP stroke
-212 0 1675 3769 2 MP stroke
212 -211 1463 3769 2 MP stroke
0 211 1463 3981 2 MP stroke
-212 0 1675 3981 2 MP stroke
212 -212 1463 3981 2 MP stroke
0 211 1463 4192 2 MP stroke
-212 0 1675 4192 2 MP stroke
212 -211 1463 4192 2 MP stroke
-212 0 1675 4403 2 MP stroke
212 -211 1463 4403 2 MP stroke
-211 0 1886 4403 2 MP stroke
0 -211 1675 4403 2 MP stroke
211 -211 1675 4403 2 MP stroke
-211 0 2097 4403 2 MP stroke
0 -211 1886 4403 2 MP stroke
211 -211 1886 4403 2 MP stroke
-212 0 2309 4403 2 MP stroke
0 -211 2097 4403 2 MP stroke
212 -211 2097 4403 2 MP stroke
-211 0 2520 4403 2 MP stroke
0 -211 2309 4403 2 MP stroke
211 -211 2309 4403 2 MP stroke
-211 0 2731 4403 2 MP stroke
0 -211 2520 4403 2 MP stroke
211 -211 2520 4403 2 MP stroke
-212 0 2943 4403 2 MP stroke
0 -211 2731 4403 2 MP stroke
212 -211 2731 4403 2 MP stroke
-211 0 3154 4403 2 MP stroke
0 -211 2943 4403 2 MP stroke
211 -211 2943 4403 2 MP stroke
-211 0 3365 4403 2 MP stroke
0 -211 3154 4403 2 MP stroke
211 -211 3154 4403 2 MP stroke
-212 0 3577 4403 2 MP stroke
0 -211 3365 4403 2 MP stroke
212 -211 3365 4403 2 MP stroke
-211 0 3788 4403 2 MP stroke
0 -211 3577 4403 2 MP stroke
211 -211 3577 4403 2 MP stroke
-211 0 3999 4403 2 MP stroke
0 -211 3788 4403 2 MP stroke
211 -211 3788 4403 2 MP stroke
-211 0 4210 4403 2 MP stroke
0 -211 3999 4403 2 MP stroke
211 -211 3999 4403 2 MP stroke
-212 0 4422 4403 2 MP stroke
0 -211 4210 4403 2 MP stroke
212 -211 4210 4403 2 MP stroke
-211 0 4633 4403 2 MP stroke
0 -211 4422 4403 2 MP stroke
211 -211 4422 4403 2 MP stroke
-211 0 4844 4403 2 MP stroke
0 -211 4633 4403 2 MP stroke
211 -211 4633 4403 2 MP stroke
-212 0 5056 4403 2 MP stroke
0 -211 4844 4403 2 MP stroke
212 -211 4844 4403 2 MP stroke
-211 0 5267 4403 2 MP stroke
0 -211 5056 4403 2 MP stroke
211 -211 5056 4403 2 MP stroke
-211 0 5478 4403 2 MP stroke
0 -211 5267 4403 2 MP stroke
211 -211 5267 4403 2 MP stroke
0 -211 5478 4403 2 MP stroke
-211 0 1886 4192 2 MP stroke
0 -211 1675 4192 2 MP stroke
211 -211 1675 4192 2 MP stroke
-211 0 2097 4192 2 MP stroke
0 -211 1886 4192 2 MP stroke
211 -211 1886 4192 2 MP stroke
-212 0 2309 4192 2 MP stroke
0 -211 2097 4192 2 MP stroke
212 -211 2097 4192 2 MP stroke
-211 0 2520 4192 2 MP stroke
0 -211 2309 4192 2 MP stroke
211 -211 2309 4192 2 MP stroke
-211 0 2731 4192 2 MP stroke
0 -211 2520 4192 2 MP stroke
211 -211 2520 4192 2 MP stroke
-212 0 2943 4192 2 MP stroke
0 -211 2731 4192 2 MP stroke
212 -211 2731 4192 2 MP stroke
-211 0 3154 4192 2 MP stroke
0 -211 2943 4192 2 MP stroke
211 -211 2943 4192 2 MP stroke
-211 0 3365 4192 2 MP stroke
0 -211 3154 4192 2 MP stroke
211 -211 3154 4192 2 MP stroke
-212 0 3577 4192 2 MP stroke
0 -211 3365 4192 2 MP stroke
212 -211 3365 4192 2 MP stroke
-211 0 3788 4192 2 MP stroke
0 -211 3577 4192 2 MP stroke
211 -211 3577 4192 2 MP stroke
-211 0 3999 4192 2 MP stroke
0 -211 3788 4192 2 MP stroke
211 -211 3788 4192 2 MP stroke
-211 0 4210 4192 2 MP stroke
0 -211 3999 4192 2 MP stroke
211 -211 3999 4192 2 MP stroke
-212 0 4422 4192 2 MP stroke
0 -211 4210 4192 2 MP stroke
212 -211 4210 4192 2 MP stroke
-211 0 4633 4192 2 MP stroke
0 -211 4422 4192 2 MP stroke
211 -211 4422 4192 2 MP stroke
-211 0 4844 4192 2 MP stroke
0 -211 4633 4192 2 MP stroke
211 -211 4633 4192 2 MP stroke
-212 0 5056 4192 2 MP stroke
0 -211 4844 4192 2 MP stroke
212 -211 4844 4192 2 MP stroke
-211 0 5267 4192 2 MP stroke
0 -211 5056 4192 2 MP stroke
211 -211 5056 4192 2 MP stroke
-211 0 5478 4192 2 MP stroke
0 -211 5267 4192 2 MP stroke
211 -211 5267 4192 2 MP stroke
0 -211 5478 4192 2 MP stroke
-211 0 1886 3981 2 MP stroke
0 -212 1675 3981 2 MP stroke
211 -212 1675 3981 2 MP stroke
-211 0 2097 3981 2 MP stroke
0 -212 1886 3981 2 MP stroke
211 -212 1886 3981 2 MP stroke
-212 0 2309 3981 2 MP stroke
0 -212 2097 3981 2 MP stroke
212 -212 2097 3981 2 MP stroke
-211 0 2520 3981 2 MP stroke
0 -212 2309 3981 2 MP stroke
211 -212 2309 3981 2 MP stroke
-211 0 2731 3981 2 MP stroke
0 -212 2520 3981 2 MP stroke
211 -212 2520 3981 2 MP stroke
-212 0 2943 3981 2 MP stroke
0 -212 2731 3981 2 MP stroke
212 -212 2731 3981 2 MP stroke
-211 0 3154 3981 2 MP stroke
0 -212 2943 3981 2 MP stroke
211 -212 2943 3981 2 MP stroke
-211 0 3365 3981 2 MP stroke
0 -212 3154 3981 2 MP stroke
211 -212 3154 3981 2 MP stroke
-212 0 3577 3981 2 MP stroke
0 -212 3365 3981 2 MP stroke
212 -212 3365 3981 2 MP stroke
-211 0 3788 3981 2 MP stroke
0 -212 3577 3981 2 MP stroke
211 -212 3577 3981 2 MP stroke
-211 0 3999 3981 2 MP stroke
0 -212 3788 3981 2 MP stroke
211 -212 3788 3981 2 MP stroke
-211 0 4210 3981 2 MP stroke
0 -212 3999 3981 2 MP stroke
211 -212 3999 3981 2 MP stroke
-212 0 4422 3981 2 MP stroke
0 -212 4210 3981 2 MP stroke
212 -212 4210 3981 2 MP stroke
-211 0 4633 3981 2 MP stroke
0 -212 4422 3981 2 MP stroke
211 -212 4422 3981 2 MP stroke
-211 0 4844 3981 2 MP stroke
0 -212 4633 3981 2 MP stroke
211 -212 4633 3981 2 MP stroke
-212 0 5056 3981 2 MP stroke
0 -212 4844 3981 2 MP stroke
212 -212 4844 3981 2 MP stroke
-211 0 5267 3981 2 MP stroke
0 -212 5056 3981 2 MP stroke
211 -212 5056 3981 2 MP stroke
-211 0 5478 3981 2 MP stroke
0 -212 5267 3981 2 MP stroke
211 -212 5267 3981 2 MP stroke
0 -212 5478 3981 2 MP stroke
-211 0 1886 3769 2 MP stroke
0 -211 1675 3769 2 MP stroke
211 -211 1675 3769 2 MP stroke
-211 0 2097 3769 2 MP stroke
0 -211 1886 3769 2 MP stroke
211 -211 1886 3769 2 MP stroke
-212 0 2309 3769 2 MP stroke
0 -211 2097 3769 2 MP stroke
212 -211 2097 3769 2 MP stroke
-211 0 2520 3769 2 MP stroke
0 -211 2309 3769 2 MP stroke
211 -211 2309 3769 2 MP stroke
-211 0 2731 3769 2 MP stroke
0 -211 2520 3769 2 MP stroke
211 -211 2520 3769 2 MP stroke
-212 0 2943 3769 2 MP stroke
0 -211 2731 3769 2 MP stroke
212 -211 2731 3769 2 MP stroke
-211 0 3154 3769 2 MP stroke
0 -211 2943 3769 2 MP stroke
211 -211 2943 3769 2 MP stroke
-211 0 3365 3769 2 MP stroke
0 -211 3154 3769 2 MP stroke
211 -211 3154 3769 2 MP stroke
-212 0 3577 3769 2 MP stroke
0 -211 3365 3769 2 MP stroke
212 -211 3365 3769 2 MP stroke
-211 0 3788 3769 2 MP stroke
0 -211 3577 3769 2 MP stroke
211 -211 3577 3769 2 MP stroke
-211 0 3999 3769 2 MP stroke
0 -211 3788 3769 2 MP stroke
211 -211 3788 3769 2 MP stroke
-211 0 4210 3769 2 MP stroke
0 -211 3999 3769 2 MP stroke
211 -211 3999 3769 2 MP stroke
-212 0 4422 3769 2 MP stroke
0 -211 4210 3769 2 MP stroke
212 -211 4210 3769 2 MP stroke
-211 0 4633 3769 2 MP stroke
0 -211 4422 3769 2 MP stroke
211 -211 4422 3769 2 MP stroke
-211 0 4844 3769 2 MP stroke
0 -211 4633 3769 2 MP stroke
211 -211 4633 3769 2 MP stroke
-212 0 5056 3769 2 MP stroke
0 -211 4844 3769 2 MP stroke
212 -211 4844 3769 2 MP stroke
-211 0 5267 3769 2 MP stroke
0 -211 5056 3769 2 MP stroke
211 -211 5056 3769 2 MP stroke
-211 0 5478 3769 2 MP stroke
0 -211 5267 3769 2 MP stroke
211 -211 5267 3769 2 MP stroke
0 -211 5478 3769 2 MP stroke
-211 0 1886 3558 2 MP stroke
0 -211 1675 3558 2 MP stroke
211 -211 1675 3558 2 MP stroke
-211 0 2097 3558 2 MP stroke
0 -211 1886 3558 2 MP stroke
211 -211 1886 3558 2 MP stroke
-212 0 2309 3558 2 MP stroke
0 -211 2097 3558 2 MP stroke
212 -211 2097 3558 2 MP stroke
-211 0 2520 3558 2 MP stroke
0 -211 2309 3558 2 MP stroke
211 -211 2309 3558 2 MP stroke
-211 0 2731 3558 2 MP stroke
0 -211 2520 3558 2 MP stroke
211 -211 2520 3558 2 MP stroke
-212 0 2943 3558 2 MP stroke
0 -211 2731 3558 2 MP stroke
212 -211 2731 3558 2 MP stroke
-211 0 3154 3558 2 MP stroke
0 -211 2943 3558 2 MP stroke
211 -211 2943 3558 2 MP stroke
-211 0 3365 3558 2 MP stroke
0 -211 3154 3558 2 MP stroke
211 -211 3154 3558 2 MP stroke
-212 0 3577 3558 2 MP stroke
0 -211 3365 3558 2 MP stroke
212 -211 3365 3558 2 MP stroke
-211 0 3788 3558 2 MP stroke
0 -211 3577 3558 2 MP stroke
211 -211 3577 3558 2 MP stroke
-211 0 3999 3558 2 MP stroke
0 -211 3788 3558 2 MP stroke
211 -211 3788 3558 2 MP stroke
-211 0 4210 3558 2 MP stroke
0 -211 3999 3558 2 MP stroke
211 -211 3999 3558 2 MP stroke
-212 0 4422 3558 2 MP stroke
0 -211 4210 3558 2 MP stroke
212 -211 4210 3558 2 MP stroke
-211 0 4633 3558 2 MP stroke
0 -211 4422 3558 2 MP stroke
211 -211 4422 3558 2 MP stroke
-211 0 4844 3558 2 MP stroke
0 -211 4633 3558 2 MP stroke
211 -211 4633 3558 2 MP stroke
-212 0 5056 3558 2 MP stroke
0 -211 4844 3558 2 MP stroke
212 -211 4844 3558 2 MP stroke
-211 0 5267 3558 2 MP stroke
0 -211 5056 3558 2 MP stroke
211 -211 5056 3558 2 MP stroke
-211 0 5478 3558 2 MP stroke
0 -211 5267 3558 2 MP stroke
211 -211 5267 3558 2 MP stroke
0 -211 5478 3558 2 MP stroke
-211 0 1886 3347 2 MP stroke
0 -212 1675 3347 2 MP stroke
211 -212 1675 3347 2 MP stroke
-211 0 2097 3347 2 MP stroke
0 -212 1886 3347 2 MP stroke
211 -212 1886 3347 2 MP stroke
-212 0 2309 3347 2 MP stroke
0 -212 2097 3347 2 MP stroke
212 -212 2097 3347 2 MP stroke
-211 0 2520 3347 2 MP stroke
0 -212 2309 3347 2 MP stroke
211 -212 2309 3347 2 MP stroke
-211 0 2731 3347 2 MP stroke
0 -212 2520 3347 2 MP stroke
211 -212 2520 3347 2 MP stroke
-212 0 2943 3347 2 MP stroke
0 -212 2731 3347 2 MP stroke
212 -212 2731 3347 2 MP stroke
-211 0 3154 3347 2 MP stroke
0 -212 2943 3347 2 MP stroke
211 -212 2943 3347 2 MP stroke
-211 0 3365 3347 2 MP stroke
0 -212 3154 3347 2 MP stroke
211 -212 3154 3347 2 MP stroke
-212 0 3577 3347 2 MP stroke
0 -212 3365 3347 2 MP stroke
212 -212 3365 3347 2 MP stroke
-211 0 3788 3347 2 MP stroke
0 -212 3577 3347 2 MP stroke
211 -212 3577 3347 2 MP stroke
-211 0 3999 3347 2 MP stroke
0 -212 3788 3347 2 MP stroke
211 -212 3788 3347 2 MP stroke
-211 0 4210 3347 2 MP stroke
0 -212 3999 3347 2 MP stroke
211 -212 3999 3347 2 MP stroke
-212 0 4422 3347 2 MP stroke
0 -212 4210 3347 2 MP stroke
212 -212 4210 3347 2 MP stroke
-211 0 4633 3347 2 MP stroke
0 -212 4422 3347 2 MP stroke
211 -212 4422 3347 2 MP stroke
-211 0 4844 3347 2 MP stroke
0 -212 4633 3347 2 MP stroke
211 -212 4633 3347 2 MP stroke
-212 0 5056 3347 2 MP stroke
0 -212 4844 3347 2 MP stroke
212 -212 4844 3347 2 MP stroke
-211 0 5267 3347 2 MP stroke
0 -212 5056 3347 2 MP stroke
211 -212 5056 3347 2 MP stroke
-211 0 5478 3347 2 MP stroke
0 -212 5267 3347 2 MP stroke
211 -212 5267 3347 2 MP stroke
0 -212 5478 3347 2 MP stroke
-211 0 1886 3135 2 MP stroke
0 -211 1675 3135 2 MP stroke
211 -211 1675 3135 2 MP stroke
-211 0 2097 3135 2 MP stroke
0 -211 1886 3135 2 MP stroke
211 -211 1886 3135 2 MP stroke
-212 0 2309 3135 2 MP stroke
0 -211 2097 3135 2 MP stroke
212 -211 2097 3135 2 MP stroke
-211 0 2520 3135 2 MP stroke
0 -211 2309 3135 2 MP stroke
211 -211 2309 3135 2 MP stroke
-211 0 2731 3135 2 MP stroke
0 -211 2520 3135 2 MP stroke
211 -211 2520 3135 2 MP stroke
-212 0 2943 3135 2 MP stroke
0 -211 2731 3135 2 MP stroke
212 -211 2731 3135 2 MP stroke
-211 0 3154 3135 2 MP stroke
0 -211 2943 3135 2 MP stroke
211 -211 2943 3135 2 MP stroke
-211 0 3365 3135 2 MP stroke
0 -211 3154 3135 2 MP stroke
211 -211 3154 3135 2 MP stroke
-212 0 3577 3135 2 MP stroke
0 -211 3365 3135 2 MP stroke
212 -211 3365 3135 2 MP stroke
-211 0 3788 3135 2 MP stroke
0 -211 3577 3135 2 MP stroke
211 -211 3577 3135 2 MP stroke
-211 0 3999 3135 2 MP stroke
0 -211 3788 3135 2 MP stroke
211 -211 3788 3135 2 MP stroke
-211 0 4210 3135 2 MP stroke
0 -211 3999 3135 2 MP stroke
211 -211 3999 3135 2 MP stroke
-212 0 4422 3135 2 MP stroke
0 -211 4210 3135 2 MP stroke
212 -211 4210 3135 2 MP stroke
-211 0 4633 3135 2 MP stroke
0 -211 4422 3135 2 MP stroke
211 -211 4422 3135 2 MP stroke
-211 0 4844 3135 2 MP stroke
0 -211 4633 3135 2 MP stroke
211 -211 4633 3135 2 MP stroke
-212 0 5056 3135 2 MP stroke
0 -211 4844 3135 2 MP stroke
212 -211 4844 3135 2 MP stroke
-211 0 5267 3135 2 MP stroke
0 -211 5056 3135 2 MP stroke
211 -211 5056 3135 2 MP stroke
-211 0 5478 3135 2 MP stroke
0 -211 5267 3135 2 MP stroke
211 -211 5267 3135 2 MP stroke
0 -211 5478 3135 2 MP stroke
-211 0 1886 2924 2 MP stroke
0 -211 1675 2924 2 MP stroke
211 -211 1675 2924 2 MP stroke
-211 0 2097 2924 2 MP stroke
0 -211 1886 2924 2 MP stroke
211 -211 1886 2924 2 MP stroke
-212 0 2309 2924 2 MP stroke
0 -211 2097 2924 2 MP stroke
212 -211 2097 2924 2 MP stroke
-211 0 2520 2924 2 MP stroke
0 -211 2309 2924 2 MP stroke
211 -211 2309 2924 2 MP stroke
-211 0 2731 2924 2 MP stroke
0 -211 2520 2924 2 MP stroke
211 -211 2520 2924 2 MP stroke
-212 0 2943 2924 2 MP stroke
0 -211 2731 2924 2 MP stroke
212 -211 2731 2924 2 MP stroke
-211 0 3154 2924 2 MP stroke
0 -211 2943 2924 2 MP stroke
211 -211 2943 2924 2 MP stroke
-211 0 3365 2924 2 MP stroke
0 -211 3154 2924 2 MP stroke
211 -211 3154 2924 2 MP stroke
-212 0 3577 2924 2 MP stroke
0 -211 3365 2924 2 MP stroke
212 -211 3365 2924 2 MP stroke
-211 0 3788 2924 2 MP stroke
0 -211 3577 2924 2 MP stroke
211 -211 3577 2924 2 MP stroke
-211 0 3999 2924 2 MP stroke
0 -211 3788 2924 2 MP stroke
211 -211 3788 2924 2 MP stroke
-211 0 4210 2924 2 MP stroke
0 -211 3999 2924 2 MP stroke
211 -211 3999 2924 2 MP stroke
-212 0 4422 2924 2 MP stroke
0 -211 4210 2924 2 MP stroke
212 -211 4210 2924 2 MP stroke
-211 0 4633 2924 2 MP stroke
0 -211 4422 2924 2 MP stroke
211 -211 4422 2924 2 MP stroke
-211 0 4844 2924 2 MP stroke
0 -211 4633 2924 2 MP stroke
211 -211 4633 2924 2 MP stroke
-212 0 5056 2924 2 MP stroke
0 -211 4844 2924 2 MP stroke
212 -211 4844 2924 2 MP stroke
-211 0 5267 2924 2 MP stroke
0 -211 5056 2924 2 MP stroke
211 -211 5056 2924 2 MP stroke
-211 0 5478 2924 2 MP stroke
0 -211 5267 2924 2 MP stroke
211 -211 5267 2924 2 MP stroke
0 -211 5478 2924 2 MP stroke
-211 0 1886 2713 2 MP stroke
0 -212 1675 2713 2 MP stroke
211 -212 1675 2713 2 MP stroke
-211 0 2097 2713 2 MP stroke
0 -212 1886 2713 2 MP stroke
211 -212 1886 2713 2 MP stroke
-212 0 2309 2713 2 MP stroke
0 -212 2097 2713 2 MP stroke
212 -212 2097 2713 2 MP stroke
-211 0 2520 2713 2 MP stroke
0 -212 2309 2713 2 MP stroke
211 -212 2309 2713 2 MP stroke
-211 0 2731 2713 2 MP stroke
0 -212 2520 2713 2 MP stroke
211 -212 2520 2713 2 MP stroke
-212 0 2943 2713 2 MP stroke
0 -212 2731 2713 2 MP stroke
212 -212 2731 2713 2 MP stroke
-211 0 3154 2713 2 MP stroke
0 -212 2943 2713 2 MP stroke
211 -212 2943 2713 2 MP stroke
-211 0 3365 2713 2 MP stroke
0 -212 3154 2713 2 MP stroke
211 -212 3154 2713 2 MP stroke
-212 0 3577 2713 2 MP stroke
0 -212 3365 2713 2 MP stroke
212 -212 3365 2713 2 MP stroke
-211 0 3788 2713 2 MP stroke
0 -212 3577 2713 2 MP stroke
211 -212 3577 2713 2 MP stroke
-211 0 3999 2713 2 MP stroke
0 -212 3788 2713 2 MP stroke
211 -212 3788 2713 2 MP stroke
-211 0 4210 2713 2 MP stroke
0 -212 3999 2713 2 MP stroke
211 -212 3999 2713 2 MP stroke
-212 0 4422 2713 2 MP stroke
0 -212 4210 2713 2 MP stroke
212 -212 4210 2713 2 MP stroke
-211 0 4633 2713 2 MP stroke
0 -212 4422 2713 2 MP stroke
211 -212 4422 2713 2 MP stroke
-211 0 4844 2713 2 MP stroke
0 -212 4633 2713 2 MP stroke
211 -212 4633 2713 2 MP stroke
-212 0 5056 2713 2 MP stroke
0 -212 4844 2713 2 MP stroke
212 -212 4844 2713 2 MP stroke
-211 0 5267 2713 2 MP stroke
0 -212 5056 2713 2 MP stroke
211 -212 5056 2713 2 MP stroke
-211 0 5478 2713 2 MP stroke
0 -212 5267 2713 2 MP stroke
211 -212 5267 2713 2 MP stroke
0 -212 5478 2713 2 MP stroke
-211 0 1886 2501 2 MP stroke
0 -211 1675 2501 2 MP stroke
211 -211 1675 2501 2 MP stroke
-211 0 2097 2501 2 MP stroke
0 -211 1886 2501 2 MP stroke
211 -211 1886 2501 2 MP stroke
-212 0 2309 2501 2 MP stroke
0 -211 2097 2501 2 MP stroke
212 -211 2097 2501 2 MP stroke
-211 0 2520 2501 2 MP stroke
0 -211 2309 2501 2 MP stroke
211 -211 2309 2501 2 MP stroke
-211 0 2731 2501 2 MP stroke
0 -211 2520 2501 2 MP stroke
211 -211 2520 2501 2 MP stroke
-212 0 2943 2501 2 MP stroke
0 -211 2731 2501 2 MP stroke
212 -211 2731 2501 2 MP stroke
-211 0 3154 2501 2 MP stroke
0 -211 2943 2501 2 MP stroke
211 -211 2943 2501 2 MP stroke
-211 0 3365 2501 2 MP stroke
0 -211 3154 2501 2 MP stroke
211 -211 3154 2501 2 MP stroke
-212 0 3577 2501 2 MP stroke
0 -211 3365 2501 2 MP stroke
212 -211 3365 2501 2 MP stroke
-211 0 3788 2501 2 MP stroke
0 -211 3577 2501 2 MP stroke
211 -211 3577 2501 2 MP stroke
-211 0 3999 2501 2 MP stroke
0 -211 3788 2501 2 MP stroke
211 -211 3788 2501 2 MP stroke
-211 0 4210 2501 2 MP stroke
0 -211 3999 2501 2 MP stroke
211 -211 3999 2501 2 MP stroke
-212 0 4422 2501 2 MP stroke
0 -211 4210 2501 2 MP stroke
212 -211 4210 2501 2 MP stroke
-211 0 4633 2501 2 MP stroke
0 -211 4422 2501 2 MP stroke
211 -211 4422 2501 2 MP stroke
-211 0 4844 2501 2 MP stroke
0 -211 4633 2501 2 MP stroke
211 -211 4633 2501 2 MP stroke
-212 0 5056 2501 2 MP stroke
0 -211 4844 2501 2 MP stroke
212 -211 4844 2501 2 MP stroke
-211 0 5267 2501 2 MP stroke
0 -211 5056 2501 2 MP stroke
211 -211 5056 2501 2 MP stroke
-211 0 5478 2501 2 MP stroke
0 -211 5267 2501 2 MP stroke
211 -211 5267 2501 2 MP stroke
0 -211 5478 2501 2 MP stroke
-211 0 1886 2290 2 MP stroke
0 -211 1675 2290 2 MP stroke
211 -211 1675 2290 2 MP stroke
-211 0 2097 2290 2 MP stroke
0 -211 1886 2290 2 MP stroke
211 -211 1886 2290 2 MP stroke
-212 0 2309 2290 2 MP stroke
0 -211 2097 2290 2 MP stroke
212 -211 2097 2290 2 MP stroke
-211 0 2520 2290 2 MP stroke
0 -211 2309 2290 2 MP stroke
211 -211 2309 2290 2 MP stroke
-211 0 2731 2290 2 MP stroke
0 -211 2520 2290 2 MP stroke
211 -211 2520 2290 2 MP stroke
-212 0 2943 2290 2 MP stroke
0 -211 2731 2290 2 MP stroke
212 -211 2731 2290 2 MP stroke
-211 0 3154 2290 2 MP stroke
0 -211 2943 2290 2 MP stroke
211 -211 2943 2290 2 MP stroke
-211 0 3365 2290 2 MP stroke
0 -211 3154 2290 2 MP stroke
211 -211 3154 2290 2 MP stroke
-212 0 3577 2290 2 MP stroke
0 -211 3365 2290 2 MP stroke
212 -211 3365 2290 2 MP stroke
-211 0 3788 2290 2 MP stroke
0 -211 3577 2290 2 MP stroke
211 -211 3577 2290 2 MP stroke
-211 0 3999 2290 2 MP stroke
0 -211 3788 2290 2 MP stroke
211 -211 3788 2290 2 MP stroke
-211 0 4210 2290 2 MP stroke
0 -211 3999 2290 2 MP stroke
211 -211 3999 2290 2 MP stroke
-212 0 4422 2290 2 MP stroke
0 -211 4210 2290 2 MP stroke
212 -211 4210 2290 2 MP stroke
-211 0 4633 2290 2 MP stroke
0 -211 4422 2290 2 MP stroke
211 -211 4422 2290 2 MP stroke
-211 0 4844 2290 2 MP stroke
0 -211 4633 2290 2 MP stroke
211 -211 4633 2290 2 MP stroke
-212 0 5056 2290 2 MP stroke
0 -211 4844 2290 2 MP stroke
212 -211 4844 2290 2 MP stroke
-211 0 5267 2290 2 MP stroke
0 -211 5056 2290 2 MP stroke
211 -211 5056 2290 2 MP stroke
-211 0 5478 2290 2 MP stroke
0 -211 5267 2290 2 MP stroke
211 -211 5267 2290 2 MP stroke
0 -211 5478 2290 2 MP stroke
-211 0 1886 2079 2 MP stroke
0 -211 1675 2079 2 MP stroke
211 -211 1675 2079 2 MP stroke
-211 0 2097 2079 2 MP stroke
0 -211 1886 2079 2 MP stroke
211 -211 1886 2079 2 MP stroke
-212 0 2309 2079 2 MP stroke
0 -211 2097 2079 2 MP stroke
212 -211 2097 2079 2 MP stroke
-211 0 2520 2079 2 MP stroke
0 -211 2309 2079 2 MP stroke
211 -211 2309 2079 2 MP stroke
-211 0 2731 2079 2 MP stroke
0 -211 2520 2079 2 MP stroke
211 -211 2520 2079 2 MP stroke
-212 0 2943 2079 2 MP stroke
0 -211 2731 2079 2 MP stroke
212 -211 2731 2079 2 MP stroke
-211 0 3154 2079 2 MP stroke
0 -211 2943 2079 2 MP stroke
211 -211 2943 2079 2 MP stroke
-211 0 3365 2079 2 MP stroke
0 -211 3154 2079 2 MP stroke
211 -211 3154 2079 2 MP stroke
-212 0 3577 2079 2 MP stroke
0 -211 3365 2079 2 MP stroke
212 -211 3365 2079 2 MP stroke
-211 0 3788 2079 2 MP stroke
0 -211 3577 2079 2 MP stroke
211 -211 3577 2079 2 MP stroke
-211 0 3999 2079 2 MP stroke
0 -211 3788 2079 2 MP stroke
211 -211 3788 2079 2 MP stroke
-211 0 4210 2079 2 MP stroke
0 -211 3999 2079 2 MP stroke
211 -211 3999 2079 2 MP stroke
-212 0 4422 2079 2 MP stroke
0 -211 4210 2079 2 MP stroke
212 -211 4210 2079 2 MP stroke
-211 0 4633 2079 2 MP stroke
0 -211 4422 2079 2 MP stroke
211 -211 4422 2079 2 MP stroke
-211 0 4844 2079 2 MP stroke
0 -211 4633 2079 2 MP stroke
211 -211 4633 2079 2 MP stroke
-212 0 5056 2079 2 MP stroke
0 -211 4844 2079 2 MP stroke
212 -211 4844 2079 2 MP stroke
-211 0 5267 2079 2 MP stroke
0 -211 5056 2079 2 MP stroke
211 -211 5056 2079 2 MP stroke
-211 0 5478 2079 2 MP stroke
0 -211 5267 2079 2 MP stroke
211 -211 5267 2079 2 MP stroke
0 -211 5478 2079 2 MP stroke
-211 0 1886 1868 2 MP stroke
0 -212 1675 1868 2 MP stroke
211 -212 1675 1868 2 MP stroke
-211 0 2097 1868 2 MP stroke
0 -212 1886 1868 2 MP stroke
211 -212 1886 1868 2 MP stroke
-212 0 2309 1868 2 MP stroke
0 -212 2097 1868 2 MP stroke
212 -212 2097 1868 2 MP stroke
-211 0 2520 1868 2 MP stroke
0 -212 2309 1868 2 MP stroke
211 -212 2309 1868 2 MP stroke
-211 0 2731 1868 2 MP stroke
0 -212 2520 1868 2 MP stroke
211 -212 2520 1868 2 MP stroke
-212 0 2943 1868 2 MP stroke
0 -212 2731 1868 2 MP stroke
212 -212 2731 1868 2 MP stroke
-211 0 3154 1868 2 MP stroke
0 -212 2943 1868 2 MP stroke
211 -212 2943 1868 2 MP stroke
-211 0 3365 1868 2 MP stroke
0 -212 3154 1868 2 MP stroke
211 -212 3154 1868 2 MP stroke
-212 0 3577 1868 2 MP stroke
0 -212 3365 1868 2 MP stroke
212 -212 3365 1868 2 MP stroke
-211 0 3788 1868 2 MP stroke
0 -212 3577 1868 2 MP stroke
211 -212 3577 1868 2 MP stroke
-211 0 3999 1868 2 MP stroke
0 -212 3788 1868 2 MP stroke
211 -212 3788 1868 2 MP stroke
-211 0 4210 1868 2 MP stroke
0 -212 3999 1868 2 MP stroke
211 -212 3999 1868 2 MP stroke
-212 0 4422 1868 2 MP stroke
0 -212 4210 1868 2 MP stroke
212 -212 4210 1868 2 MP stroke
-211 0 4633 1868 2 MP stroke
0 -212 4422 1868 2 MP stroke
211 -212 4422 1868 2 MP stroke
-211 0 4844 1868 2 MP stroke
0 -212 4633 1868 2 MP stroke
211 -212 4633 1868 2 MP stroke
-212 0 5056 1868 2 MP stroke
0 -212 4844 1868 2 MP stroke
212 -212 4844 1868 2 MP stroke
-211 0 5267 1868 2 MP stroke
0 -212 5056 1868 2 MP stroke
211 -212 5056 1868 2 MP stroke
-211 0 5478 1868 2 MP stroke
0 -212 5267 1868 2 MP stroke
211 -212 5267 1868 2 MP stroke
0 -212 5478 1868 2 MP stroke
-211 0 1886 1656 2 MP stroke
0 -211 1675 1656 2 MP stroke
211 -211 1675 1656 2 MP stroke
-211 0 2097 1656 2 MP stroke
0 -211 1886 1656 2 MP stroke
211 -211 1886 1656 2 MP stroke
-212 0 2309 1656 2 MP stroke
0 -211 2097 1656 2 MP stroke
212 -211 2097 1656 2 MP stroke
-211 0 2520 1656 2 MP stroke
0 -211 2309 1656 2 MP stroke
211 -211 2309 1656 2 MP stroke
-211 0 2731 1656 2 MP stroke
0 -211 2520 1656 2 MP stroke
211 -211 2520 1656 2 MP stroke
-212 0 2943 1656 2 MP stroke
0 -211 2731 1656 2 MP stroke
212 -211 2731 1656 2 MP stroke
-211 0 3154 1656 2 MP stroke
0 -211 2943 1656 2 MP stroke
211 -211 2943 1656 2 MP stroke
-211 0 3365 1656 2 MP stroke
0 -211 3154 1656 2 MP stroke
211 -211 3154 1656 2 MP stroke
-212 0 3577 1656 2 MP stroke
0 -211 3365 1656 2 MP stroke
212 -211 3365 1656 2 MP stroke
-211 0 3788 1656 2 MP stroke
0 -211 3577 1656 2 MP stroke
211 -211 3577 1656 2 MP stroke
-211 0 3999 1656 2 MP stroke
0 -211 3788 1656 2 MP stroke
211 -211 3788 1656 2 MP stroke
-211 0 4210 1656 2 MP stroke
0 -211 3999 1656 2 MP stroke
211 -211 3999 1656 2 MP stroke
-212 0 4422 1656 2 MP stroke
0 -211 4210 1656 2 MP stroke
212 -211 4210 1656 2 MP stroke
-211 0 4633 1656 2 MP stroke
0 -211 4422 1656 2 MP stroke
211 -211 4422 1656 2 MP stroke
-211 0 4844 1656 2 MP stroke
0 -211 4633 1656 2 MP stroke
211 -211 4633 1656 2 MP stroke
-212 0 5056 1656 2 MP stroke
0 -211 4844 1656 2 MP stroke
212 -211 4844 1656 2 MP stroke
-211 0 5267 1656 2 MP stroke
0 -211 5056 1656 2 MP stroke
211 -211 5056 1656 2 MP stroke
-211 0 5478 1656 2 MP stroke
0 -211 5267 1656 2 MP stroke
211 -211 5267 1656 2 MP stroke
0 -211 5478 1656 2 MP stroke
-211 0 1886 1445 2 MP stroke
0 -211 1675 1445 2 MP stroke
211 -211 1675 1445 2 MP stroke
-211 0 2097 1445 2 MP stroke
0 -211 1886 1445 2 MP stroke
211 -211 1886 1445 2 MP stroke
-212 0 2309 1445 2 MP stroke
0 -211 2097 1445 2 MP stroke
212 -211 2097 1445 2 MP stroke
-211 0 2520 1445 2 MP stroke
0 -211 2309 1445 2 MP stroke
211 -211 2309 1445 2 MP stroke
-211 0 2731 1445 2 MP stroke
0 -211 2520 1445 2 MP stroke
211 -211 2520 1445 2 MP stroke
-212 0 2943 1445 2 MP stroke
0 -211 2731 1445 2 MP stroke
212 -211 2731 1445 2 MP stroke
-211 0 3154 1445 2 MP stroke
0 -211 2943 1445 2 MP stroke
211 -211 2943 1445 2 MP stroke
-211 0 3365 1445 2 MP stroke
0 -211 3154 1445 2 MP stroke
211 -211 3154 1445 2 MP stroke
-212 0 3577 1445 2 MP stroke
0 -211 3365 1445 2 MP stroke
212 -211 3365 1445 2 MP stroke
-211 0 3788 1445 2 MP stroke
0 -211 3577 1445 2 MP stroke
211 -211 3577 1445 2 MP stroke
-211 0 3999 1445 2 MP stroke
0 -211 3788 1445 2 MP stroke
211 -211 3788 1445 2 MP stroke
-211 0 4210 1445 2 MP stroke
0 -211 3999 1445 2 MP stroke
211 -211 3999 1445 2 MP stroke
-212 0 4422 1445 2 MP stroke
0 -211 4210 1445 2 MP stroke
212 -211 4210 1445 2 MP stroke
-211 0 4633 1445 2 MP stroke
0 -211 4422 1445 2 MP stroke
211 -211 4422 1445 2 MP stroke
-211 0 4844 1445 2 MP stroke
0 -211 4633 1445 2 MP stroke
211 -211 4633 1445 2 MP stroke
-212 0 5056 1445 2 MP stroke
0 -211 4844 1445 2 MP stroke
212 -211 4844 1445 2 MP stroke
-211 0 5267 1445 2 MP stroke
0 -211 5056 1445 2 MP stroke
211 -211 5056 1445 2 MP stroke
-211 0 5478 1445 2 MP stroke
0 -211 5267 1445 2 MP stroke
211 -211 5267 1445 2 MP stroke
0 -211 5478 1445 2 MP stroke
-211 0 1886 1234 2 MP stroke
0 -212 1675 1234 2 MP stroke
211 -212 1675 1234 2 MP stroke
-211 0 2097 1234 2 MP stroke
0 -212 1886 1234 2 MP stroke
211 -212 1886 1234 2 MP stroke
-212 0 2309 1234 2 MP stroke
0 -212 2097 1234 2 MP stroke
212 -212 2097 1234 2 MP stroke
-211 0 2520 1234 2 MP stroke
0 -212 2309 1234 2 MP stroke
211 -212 2309 1234 2 MP stroke
-211 0 2731 1234 2 MP stroke
0 -212 2520 1234 2 MP stroke
211 -212 2520 1234 2 MP stroke
-212 0 2943 1234 2 MP stroke
0 -212 2731 1234 2 MP stroke
212 -212 2731 1234 2 MP stroke
-211 0 3154 1234 2 MP stroke
0 -212 2943 1234 2 MP stroke
211 -212 2943 1234 2 MP stroke
-211 0 3365 1234 2 MP stroke
0 -212 3154 1234 2 MP stroke
211 -212 3154 1234 2 MP stroke
-212 0 3577 1234 2 MP stroke
0 -212 3365 1234 2 MP stroke
212 -212 3365 1234 2 MP stroke
-211 0 3788 1234 2 MP stroke
0 -212 3577 1234 2 MP stroke
211 -212 3577 1234 2 MP stroke
-211 0 3999 1234 2 MP stroke
0 -212 3788 1234 2 MP stroke
211 -212 3788 1234 2 MP stroke
-211 0 4210 1234 2 MP stroke
0 -212 3999 1234 2 MP stroke
211 -212 3999 1234 2 MP stroke
-212 0 4422 1234 2 MP stroke
0 -212 4210 1234 2 MP stroke
212 -212 4210 1234 2 MP stroke
-211 0 4633 1234 2 MP stroke
0 -212 4422 1234 2 MP stroke
211 -212 4422 1234 2 MP stroke
-211 0 4844 1234 2 MP stroke
0 -212 4633 1234 2 MP stroke
211 -212 4633 1234 2 MP stroke
-212 0 5056 1234 2 MP stroke
0 -212 4844 1234 2 MP stroke
212 -212 4844 1234 2 MP stroke
-211 0 5267 1234 2 MP stroke
0 -212 5056 1234 2 MP stroke
211 -212 5056 1234 2 MP stroke
-211 0 5478 1234 2 MP stroke
0 -212 5267 1234 2 MP stroke
211 -212 5267 1234 2 MP stroke
0 -212 5478 1234 2 MP stroke
-211 0 1886 1022 2 MP stroke
0 -211 1675 1022 2 MP stroke
211 -211 1675 1022 2 MP stroke
-211 0 2097 1022 2 MP stroke
0 -211 1886 1022 2 MP stroke
211 -211 1886 1022 2 MP stroke
-212 0 2309 1022 2 MP stroke
0 -211 2097 1022 2 MP stroke
212 -211 2097 1022 2 MP stroke
-211 0 2520 1022 2 MP stroke
0 -211 2309 1022 2 MP stroke
211 -211 2309 1022 2 MP stroke
-211 0 2731 1022 2 MP stroke
0 -211 2520 1022 2 MP stroke
211 -211 2520 1022 2 MP stroke
-212 0 2943 1022 2 MP stroke
0 -211 2731 1022 2 MP stroke
212 -211 2731 1022 2 MP stroke
-211 0 3154 1022 2 MP stroke
0 -211 2943 1022 2 MP stroke
211 -211 2943 1022 2 MP stroke
-211 0 3365 1022 2 MP stroke
0 -211 3154 1022 2 MP stroke
211 -211 3154 1022 2 MP stroke
-212 0 3577 1022 2 MP stroke
0 -211 3365 1022 2 MP stroke
212 -211 3365 1022 2 MP stroke
-211 0 3788 1022 2 MP stroke
0 -211 3577 1022 2 MP stroke
211 -211 3577 1022 2 MP stroke
-211 0 3999 1022 2 MP stroke
0 -211 3788 1022 2 MP stroke
211 -211 3788 1022 2 MP stroke
-211 0 4210 1022 2 MP stroke
0 -211 3999 1022 2 MP stroke
211 -211 3999 1022 2 MP stroke
-212 0 4422 1022 2 MP stroke
0 -211 4210 1022 2 MP stroke
212 -211 4210 1022 2 MP stroke
-211 0 4633 1022 2 MP stroke
0 -211 4422 1022 2 MP stroke
211 -211 4422 1022 2 MP stroke
-211 0 4844 1022 2 MP stroke
0 -211 4633 1022 2 MP stroke
211 -211 4633 1022 2 MP stroke
-212 0 5056 1022 2 MP stroke
0 -211 4844 1022 2 MP stroke
212 -211 4844 1022 2 MP stroke
-211 0 5267 1022 2 MP stroke
0 -211 5056 1022 2 MP stroke
211 -211 5056 1022 2 MP stroke
-211 0 5478 1022 2 MP stroke
0 -211 5267 1022 2 MP stroke
211 -211 5267 1022 2 MP stroke
0 -211 5478 1022 2 MP stroke
-211 0 1886 811 2 MP stroke
0 -211 1675 811 2 MP stroke
211 -211 1675 811 2 MP stroke
-211 0 2097 811 2 MP stroke
0 -211 1886 811 2 MP stroke
211 -211 1886 811 2 MP stroke
-212 0 2309 811 2 MP stroke
0 -211 2097 811 2 MP stroke
212 -211 2097 811 2 MP stroke
-211 0 2520 811 2 MP stroke
0 -211 2309 811 2 MP stroke
211 -211 2309 811 2 MP stroke
-211 0 2731 811 2 MP stroke
0 -211 2520 811 2 MP stroke
211 -211 2520 811 2 MP stroke
-212 0 2943 811 2 MP stroke
0 -211 2731 811 2 MP stroke
212 -211 2731 811 2 MP stroke
-211 0 3154 811 2 MP stroke
0 -211 2943 811 2 MP stroke
211 -211 2943 811 2 MP stroke
-211 0 3365 811 2 MP stroke
0 -211 3154 811 2 MP stroke
211 -211 3154 811 2 MP stroke
-212 0 3577 811 2 MP stroke
0 -211 3365 811 2 MP stroke
212 -211 3365 811 2 MP stroke
-211 0 3788 811 2 MP stroke
0 -211 3577 811 2 MP stroke
211 -211 3577 811 2 MP stroke
-211 0 3999 811 2 MP stroke
0 -211 3788 811 2 MP stroke
211 -211 3788 811 2 MP stroke
-211 0 4210 811 2 MP stroke
0 -211 3999 811 2 MP stroke
211 -211 3999 811 2 MP stroke
-212 0 4422 811 2 MP stroke
0 -211 4210 811 2 MP stroke
212 -211 4210 811 2 MP stroke
-211 0 4633 811 2 MP stroke
0 -211 4422 811 2 MP stroke
211 -211 4422 811 2 MP stroke
-211 0 4844 811 2 MP stroke
0 -211 4633 811 2 MP stroke
211 -211 4633 811 2 MP stroke
-212 0 5056 811 2 MP stroke
0 -211 4844 811 2 MP stroke
212 -211 4844 811 2 MP stroke
-211 0 5267 811 2 MP stroke
0 -211 5056 811 2 MP stroke
211 -211 5056 811 2 MP stroke
-211 0 5478 811 2 MP stroke
0 -211 5267 811 2 MP stroke
211 -211 5267 811 2 MP stroke
0 -211 5478 811 2 MP stroke
-211 0 1886 600 2 MP stroke
-211 0 2097 600 2 MP stroke
-212 0 2309 600 2 MP stroke
-211 0 2520 600 2 MP stroke
-211 0 2731 600 2 MP stroke
-212 0 2943 600 2 MP stroke
-211 0 3154 600 2 MP stroke
-211 0 3365 600 2 MP stroke
-212 0 3577 600 2 MP stroke
-211 0 3788 600 2 MP stroke
-211 0 3999 600 2 MP stroke
-211 0 4210 600 2 MP stroke
-212 0 4422 600 2 MP stroke
-211 0 4633 600 2 MP stroke
-211 0 4844 600 2 MP stroke
-212 0 5056 600 2 MP stroke
-211 0 5267 600 2 MP stroke
-211 0 5478 600 2 MP stroke
gr


end %%Color Dict

eplot
%%EndObject

epage
end

showpage

%%Trailer
%%EOF
