2   1  4                                                                   
121 320 200 2 3                                                            
 -5.000000000000000e+00  -5.000000000000000e+00
  5.000000000000000e+00  -5.000000000000000e+00
  5.000000000000000e+00   5.000000000000000e+00
 -5.000000000000000e+00   5.000000000000000e+00
 -4.000000000000000e+00  -5.000000000000000e+00
 -3.000000000000000e+00  -5.000000000000000e+00
 -2.000000000000000e+00  -5.000000000000000e+00
 -1.000000000000000e+00  -5.000000000000000e+00
  0.000000000000000e+00  -5.000000000000000e+00
  1.000000000000000e+00  -5.000000000000000e+00
  2.000000000000000e+00  -5.000000000000000e+00
  3.000000000000000e+00  -5.000000000000000e+00
  4.000000000000000e+00  -5.000000000000000e+00
  5.000000000000000e+00  -4.000000000000000e+00
  5.000000000000000e+00  -3.000000000000000e+00
  5.000000000000000e+00  -2.000000000000000e+00
  5.000000000000000e+00  -1.000000000000000e+00
  5.000000000000000e+00   0.000000000000000e+00
  5.000000000000000e+00   1.000000000000000e+00
  5.000000000000000e+00   2.000000000000000e+00
  5.000000000000000e+00   3.000000000000000e+00
  5.000000000000000e+00   4.000000000000000e+00
  4.000000000000000e+00   5.000000000000000e+00
  3.000000000000000e+00   5.000000000000000e+00
  2.000000000000000e+00   5.000000000000000e+00
  1.000000000000000e+00   5.000000000000000e+00
  0.000000000000000e+00   5.000000000000000e+00
 -1.000000000000000e+00   5.000000000000000e+00
 -2.000000000000000e+00   5.000000000000000e+00
 -3.000000000000000e+00   5.000000000000000e+00
 -4.000000000000000e+00   5.000000000000000e+00
 -5.000000000000000e+00   4.000000000000000e+00
 -5.000000000000000e+00   3.000000000000000e+00
 -5.000000000000000e+00   2.000000000000000e+00
 -5.000000000000000e+00   1.000000000000000e+00
 -5.000000000000000e+00   0.000000000000000e+00
 -5.000000000000000e+00  -1.000000000000000e+00
 -5.000000000000000e+00  -2.000000000000000e+00
 -5.000000000000000e+00  -3.000000000000000e+00
 -5.000000000000000e+00  -4.000000000000000e+00
 -4.000000000000000e+00  -4.000000000000000e+00
 -3.000000000000000e+00  -4.000000000000000e+00
 -2.000000000000000e+00  -4.000000000000000e+00
 -1.000000000000000e+00  -4.000000000000000e+00
  0.000000000000000e+00  -4.000000000000000e+00
  1.000000000000000e+00  -4.000000000000000e+00
  2.000000000000000e+00  -4.000000000000000e+00
  3.000000000000000e+00  -4.000000000000000e+00
  4.000000000000000e+00  -4.000000000000000e+00
 -4.000000000000000e+00  -3.000000000000000e+00
 -3.000000000000000e+00  -3.000000000000000e+00
 -2.000000000000000e+00  -3.000000000000000e+00
 -1.000000000000000e+00  -3.000000000000000e+00
  0.000000000000000e+00  -3.000000000000000e+00
  1.000000000000000e+00  -3.000000000000000e+00
  2.000000000000000e+00  -3.000000000000000e+00
  3.000000000000000e+00  -3.000000000000000e+00
  4.000000000000000e+00  -3.000000000000000e+00
 -4.000000000000000e+00  -2.000000000000000e+00
 -3.000000000000000e+00  -2.000000000000000e+00
 -2.000000000000000e+00  -2.000000000000000e+00
 -1.000000000000000e+00  -2.000000000000000e+00
  0.000000000000000e+00  -2.000000000000000e+00
  1.000000000000000e+00  -2.000000000000000e+00
  1.999999999999999e+00  -2.000000000000000e+00
  3.000000000000000e+00  -2.000000000000000e+00
  4.000000000000000e+00  -2.000000000000000e+00
 -4.000000000000000e+00  -1.000000000000000e+00
 -3.000000000000000e+00  -1.000000000000000e+00
 -2.000000000000000e+00  -1.000000000000000e+00
 -1.000000000000000e+00  -1.000000000000000e+00
  0.000000000000000e+00  -1.000000000000000e+00
  1.000000000000000e+00  -1.000000000000000e+00
  2.000000000000000e+00  -1.000000000000000e+00
  3.000000000000000e+00  -1.000000000000000e+00
  4.000000000000000e+00  -1.000000000000000e+00
 -4.000000000000000e+00   0.000000000000000e+00
 -3.000000000000000e+00   0.000000000000000e+00
 -2.000000000000000e+00   0.000000000000000e+00
 -1.000000000000000e+00   0.000000000000000e+00
  0.000000000000000e+00   0.000000000000000e+00
  1.000000000000000e+00   0.000000000000000e+00
  2.000000000000000e+00   0.000000000000000e+00
  3.000000000000000e+00   0.000000000000000e+00
  4.000000000000000e+00   0.000000000000000e+00
 -4.000000000000000e+00   1.000000000000000e+00
 -3.000000000000000e+00   1.000000000000000e+00
 -2.000000000000000e+00   1.000000000000000e+00
 -1.000000000000000e+00   1.000000000000000e+00
  0.000000000000000e+00   1.000000000000000e+00
  1.000000000000000e+00   1.000000000000000e+00
  2.000000000000000e+00   1.000000000000000e+00
  3.000000000000000e+00   1.000000000000000e+00
  4.000000000000000e+00   1.000000000000000e+00
 -4.000000000000000e+00   2.000000000000000e+00
 -3.000000000000000e+00   2.000000000000000e+00
 -2.000000000000000e+00   2.000000000000000e+00
 -1.000000000000000e+00   2.000000000000000e+00
  0.000000000000000e+00   2.000000000000000e+00
  1.000000000000000e+00   2.000000000000000e+00
  2.000000000000000e+00   2.000000000000000e+00
  3.000000000000000e+00   2.000000000000000e+00
  4.000000000000000e+00   2.000000000000000e+00
 -4.000000000000000e+00   3.000000000000000e+00
 -3.000000000000000e+00   3.000000000000001e+00
 -1.999999999999999e+00   3.000000000000000e+00
 -1.000000000000000e+00   3.000000000000000e+00
  0.000000000000000e+00   3.000000000000000e+00
  1.000000000000000e+00   3.000000000000000e+00
  2.000000000000000e+00   3.000000000000000e+00
  3.000000000000000e+00   3.000000000000000e+00
  4.000000000000000e+00   3.000000000000000e+00
 -4.000000000000000e+00   4.000000000000000e+00
 -3.000000000000000e+00   4.000000000000000e+00
 -2.000000000000000e+00   4.000000000000000e+00
 -1.000000000000000e+00   4.000000000000000e+00
  0.000000000000000e+00   4.000000000000000e+00
  1.000000000000000e+00   4.000000000000000e+00
  2.000000000000000e+00   4.000000000000000e+00
  3.000000000000000e+00   4.000000000000000e+00
  4.000000000000000e+00   4.000000000000000e+00
2 1 5 2 -4
2 40 1 1 -1
2 1 41 1 2
2 13 2 20 -4
2 2 14 20 -2
2 22 3 200 -2
2 3 23 199 -3
2 121 3 199 200
2 31 4 181 -3
2 4 32 181 -1
2 5 6 4 -4
2 5 41 2 3
2 5 42 3 4
2 6 7 6 -4
2 6 42 4 5
2 6 43 5 6
2 7 8 8 -4
2 7 43 6 7
2 7 44 7 8
2 8 9 10 -4
2 8 44 8 9
2 8 45 9 10
2 9 10 12 -4
2 9 45 10 11
2 9 46 11 12
2 10 11 14 -4
2 10 46 12 13
2 10 47 13 14
2 11 12 16 -4
2 11 47 14 15
2 11 48 15 16
2 12 13 18 -4
2 12 48 16 17
2 12 49 17 18
2 13 14 19 20
2 13 49 18 19
2 14 15 40 -2
2 14 49 19 40
2 15 16 60 -2
2 49 15 39 40
2 15 58 39 60
2 16 17 80 -2
2 58 16 59 60
2 16 67 59 80
2 17 18 100 -2
2 67 17 79 80
2 17 76 79 100
2 18 19 120 -2
2 76 18 99 100
2 18 85 99 120
2 19 20 140 -2
2 85 19 119 120
2 19 94 119 140
2 20 21 160 -2
2 94 20 139 140
2 20 103 139 160
2 21 22 180 -2
2 103 21 159 160
2 21 112 159 180
2 112 22 179 180
2 22 121 179 200
2 23 24 197 -3
2 120 23 197 198
2 121 23 198 199
2 24 25 195 -3
2 119 24 195 196
2 120 24 196 197
2 25 26 193 -3
2 118 25 193 194
2 119 25 194 195
2 26 27 191 -3
2 117 26 191 192
2 118 26 192 193
2 27 28 189 -3
2 116 27 189 190
2 117 27 190 191
2 28 29 187 -3
2 115 28 187 188
2 116 28 188 189
2 29 30 185 -3
2 114 29 185 186
2 115 29 186 187
2 30 31 183 -3
2 113 30 183 184
2 114 30 184 185
2 32 31 181 182
2 113 31 182 183
2 32 33 161 -1
2 113 32 161 182
2 33 34 141 -1
2 104 33 141 162
2 33 113 161 162
2 34 35 121 -1
2 95 34 121 142
2 34 104 141 142
2 35 36 101 -1
2 86 35 101 122
2 35 95 121 122
2 36 37 81 -1
2 77 36 81 102
2 36 86 101 102
2 37 38 61 -1
2 68 37 61 82
2 37 77 81 82
2 38 39 41 -1
2 59 38 41 62
2 38 68 61 62
2 39 40 21 -1
2 50 39 21 42
2 39 59 41 42
2 41 40 1 22
2 40 50 21 22
2 42 41 3 24
2 41 50 22 23
2 41 51 23 24
2 43 42 5 26
2 42 51 24 25
2 42 52 25 26
2 44 43 7 28
2 43 52 26 27
2 43 53 27 28
2 45 44 9 30
2 44 53 28 29
2 44 54 29 30
2 46 45 11 32
2 45 54 30 31
2 45 55 31 32
2 47 46 13 34
2 46 55 32 33
2 46 56 33 34
2 48 47 15 36
2 47 56 34 35
2 47 57 35 36
2 49 48 17 38
2 48 57 36 37
2 48 58 37 38
2 49 58 38 39
2 51 50 23 44
2 50 59 42 43
2 50 60 43 44
2 52 51 25 46
2 51 60 44 45
2 51 61 45 46
2 53 52 27 48
2 52 61 46 47
2 52 62 47 48
2 54 53 29 50
2 53 62 48 49
2 53 63 49 50
2 55 54 31 52
2 54 63 50 51
2 54 64 51 52
2 56 55 33 54
2 55 64 52 53
2 55 65 53 54
2 57 56 35 56
2 56 65 54 55
2 56 66 55 56
2 58 57 37 58
2 57 66 56 57
2 57 67 57 58
2 58 67 58 59
2 60 59 43 64
2 59 68 62 63
2 59 69 63 64
2 61 60 45 66
2 60 69 64 65
2 60 70 65 66
2 62 61 47 68
2 61 70 66 67
2 61 71 67 68
2 63 62 49 70
2 62 71 68 69
2 62 72 69 70
2 64 63 51 72
2 63 72 70 71
2 63 73 71 72
2 65 64 53 74
2 64 73 72 73
2 64 74 73 74
2 66 65 55 76
2 65 74 74 75
2 65 75 75 76
2 67 66 57 78
2 66 75 76 77
2 66 76 77 78
2 67 76 78 79
2 69 68 63 84
2 68 77 82 83
2 68 78 83 84
2 70 69 65 86
2 69 78 84 85
2 69 79 85 86
2 71 70 67 88
2 70 79 86 87
2 70 80 87 88
2 72 71 69 90
2 71 80 88 89
2 71 81 89 90
2 73 72 71 92
2 72 81 90 91
2 72 82 91 92
2 74 73 73 94
2 73 82 92 93
2 73 83 93 94
2 75 74 75 96
2 74 83 94 95
2 74 84 95 96
2 76 75 77 98
2 75 84 96 97
2 75 85 97 98
2 76 85 98 99
2 78 77 83 104
2 77 86 102 103
2 77 87 103 104
2 79 78 85 106
2 78 87 104 105
2 78 88 105 106
2 80 79 87 108
2 79 88 106 107
2 79 89 107 108
2 81 80 89 110
2 80 89 108 109
2 80 90 109 110
2 82 81 91 112
2 81 90 110 111
2 81 91 111 112
2 83 82 93 114
2 82 91 112 113
2 82 92 113 114
2 84 83 95 116
2 83 92 114 115
2 83 93 115 116
2 85 84 97 118
2 84 93 116 117
2 84 94 117 118
2 85 94 118 119
2 87 86 103 124
2 86 95 122 123
2 86 96 123 124
2 88 87 105 126
2 87 96 124 125
2 87 97 125 126
2 89 88 107 128
2 88 97 126 127
2 88 98 127 128
2 90 89 109 130
2 89 98 128 129
2 89 99 129 130
2 91 90 111 132
2 90 99 130 131
2 90 100 131 132
2 92 91 113 134
2 91 100 132 133
2 91 101 133 134
2 93 92 115 136
2 92 101 134 135
2 92 102 135 136
2 94 93 117 138
2 93 102 136 137
2 93 103 137 138
2 94 103 138 139
2 96 95 123 144
2 95 104 142 143
2 95 105 143 144
2 97 96 125 146
2 96 105 144 145
2 96 106 145 146
2 98 97 127 148
2 97 106 146 147
2 97 107 147 148
2 99 98 129 150
2 98 107 148 149
2 98 108 149 150
2 100 99 131 152
2 99 108 150 151
2 99 109 151 152
2 101 100 133 154
2 100 109 152 153
2 100 110 153 154
2 102 101 135 156
2 101 110 154 155
2 101 111 155 156
2 103 102 137 158
2 102 111 156 157
2 102 112 157 158
2 103 112 158 159
2 105 104 143 164
2 104 113 162 163
2 104 114 163 164
2 106 105 145 166
2 105 114 164 165
2 105 115 165 166
2 107 106 147 168
2 106 115 166 167
2 106 116 167 168
2 108 107 149 170
2 107 116 168 169
2 107 117 169 170
2 109 108 151 172
2 108 117 170 171
2 108 118 171 172
2 110 109 153 174
2 109 118 172 173
2 109 119 173 174
2 111 110 155 176
2 110 119 174 175
2 110 120 175 176
2 112 111 157 178
2 111 120 176 177
2 111 121 177 178
2 112 121 178 179
2 114 113 163 184
2 115 114 165 186
2 116 115 167 188
2 117 116 169 190
2 118 117 171 192
2 119 118 173 194
2 120 119 175 196
2 121 120 177 198
