%!PS-Adobe-3.0 EPSF-3.0
%%Creator: MATLAB, The MathWorks, Inc. Version 8.1.0.604 (R2013a). Operating System: Linux 3.13.0-43-generic #72-Ubuntu SMP Mon Dec 8 19:35:06 UTC 2014 x86_64.
%%Title: ./unst008Mesh.eps
%%CreationDate: 01/25/2015  14:13:07
%%DocumentNeededFonts: Helvetica
%%DocumentProcessColors: Cyan Magenta Yellow Black
%%LanguageLevel: 2
%%Pages: 1
%%BoundingBox:   125   215   499   589
%%EndComments

%%BeginProlog
% MathWorks dictionary
/MathWorks 160 dict begin
% definition operators
/bdef {bind def} bind def
/ldef {load def} bind def
/xdef {exch def} bdef
/xstore {exch store} bdef
% operator abbreviations
/c  /clip ldef
/cc /concat ldef
/cp /closepath ldef
/gr /grestore ldef
/gs /gsave ldef
/mt /moveto ldef
/np /newpath ldef
/cm /currentmatrix ldef
/sm /setmatrix ldef
/rm /rmoveto ldef
/rl /rlineto ldef
/s {show newpath} bdef
/sc {setcmykcolor} bdef
/sr /setrgbcolor ldef
/sg /setgray ldef
/w /setlinewidth ldef
/j /setlinejoin ldef
/cap /setlinecap ldef
/rc {rectclip} bdef
/rf {rectfill} bdef
% page state control
/pgsv () def
/bpage {/pgsv save def} bdef
/epage {pgsv restore} bdef
/bplot /gsave ldef
/eplot {stroke grestore} bdef
% orientation switch
/portraitMode 0 def /landscapeMode 1 def /rotateMode 2 def
% coordinate system mappings
/dpi2point 0 def
% font control
/FontSize 0 def
/FMS {/FontSize xstore findfont [FontSize 0 0 FontSize neg 0 0]
  makefont setfont} bdef
/reencode {exch dup where {pop load} {pop StandardEncoding} ifelse
  exch dup 3 1 roll findfont dup length dict begin
  { 1 index /FID ne {def}{pop pop} ifelse } forall
  /Encoding exch def currentdict end definefont pop} bdef
/isroman {findfont /CharStrings get /Agrave known} bdef
/FMSR {3 1 roll 1 index dup isroman {reencode} {pop pop} ifelse
  exch FMS} bdef
/csm {1 dpi2point div -1 dpi2point div scale neg translate
 dup landscapeMode eq {pop -90 rotate}
  {rotateMode eq {90 rotate} if} ifelse} bdef
% line types: solid, dotted, dashed, dotdash
/SO { [] 0 setdash } bdef
/DO { [.5 dpi2point mul 4 dpi2point mul] 0 setdash } bdef
/DA { [6 dpi2point mul] 0 setdash } bdef
/DD { [.5 dpi2point mul 4 dpi2point mul 6 dpi2point mul 4
  dpi2point mul] 0 setdash } bdef
% macros for lines and objects
/L {lineto stroke} bdef
/MP {3 1 roll moveto 1 sub {rlineto} repeat} bdef
/AP {{rlineto} repeat} bdef
/PDlw -1 def
/W {/PDlw currentlinewidth def setlinewidth} def
/PP {closepath eofill} bdef
/DP {closepath stroke} bdef
/MR {4 -2 roll moveto dup  0 exch rlineto exch 0 rlineto
  neg 0 exch rlineto closepath} bdef
/FR {MR stroke} bdef
/PR {MR fill} bdef
/L1i {{currentfile picstr readhexstring pop} image} bdef
/tMatrix matrix def
/MakeOval {newpath tMatrix currentmatrix pop translate scale
0 0 1 0 360 arc tMatrix setmatrix} bdef
/FO {MakeOval stroke} bdef
/PO {MakeOval fill} bdef
/PD {currentlinewidth 2 div 0 360 arc fill
   PDlw -1 eq not {PDlw w /PDlw -1 def} if} def
/FA {newpath tMatrix currentmatrix pop translate scale
  0 0 1 5 -2 roll arc tMatrix setmatrix stroke} bdef
/PA {newpath tMatrix currentmatrix pop	translate 0 0 moveto scale
  0 0 1 5 -2 roll arc closepath tMatrix setmatrix fill} bdef
/FAn {newpath tMatrix currentmatrix pop translate scale
  0 0 1 5 -2 roll arcn tMatrix setmatrix stroke} bdef
/PAn {newpath tMatrix currentmatrix pop translate 0 0 moveto scale
  0 0 1 5 -2 roll arcn closepath tMatrix setmatrix fill} bdef
/vradius 0 def /hradius 0 def /lry 0 def
/lrx 0 def /uly 0 def /ulx 0 def /rad 0 def
/MRR {/vradius xdef /hradius xdef /lry xdef /lrx xdef /uly xdef
  /ulx xdef newpath tMatrix currentmatrix pop ulx hradius add uly
  vradius add translate hradius vradius scale 0 0 1 180 270 arc 
  tMatrix setmatrix lrx hradius sub uly vradius add translate
  hradius vradius scale 0 0 1 270 360 arc tMatrix setmatrix
  lrx hradius sub lry vradius sub translate hradius vradius scale
  0 0 1 0 90 arc tMatrix setmatrix ulx hradius add lry vradius sub
  translate hradius vradius scale 0 0 1 90 180 arc tMatrix setmatrix
  closepath} bdef
/FRR {MRR stroke } bdef
/PRR {MRR fill } bdef
/MlrRR {/lry xdef /lrx xdef /uly xdef /ulx xdef /rad lry uly sub 2 div def
  newpath tMatrix currentmatrix pop ulx rad add uly rad add translate
  rad rad scale 0 0 1 90 270 arc tMatrix setmatrix lrx rad sub lry rad
  sub translate rad rad scale 0 0 1 270 90 arc tMatrix setmatrix
  closepath} bdef
/FlrRR {MlrRR stroke } bdef
/PlrRR {MlrRR fill } bdef
/MtbRR {/lry xdef /lrx xdef /uly xdef /ulx xdef /rad lrx ulx sub 2 div def
  newpath tMatrix currentmatrix pop ulx rad add uly rad add translate
  rad rad scale 0 0 1 180 360 arc tMatrix setmatrix lrx rad sub lry rad
  sub translate rad rad scale 0 0 1 0 180 arc tMatrix setmatrix
  closepath} bdef
/FtbRR {MtbRR stroke } bdef
/PtbRR {MtbRR fill } bdef
/stri 6 array def /dtri 6 array def
/smat 6 array def /dmat 6 array def
/tmat1 6 array def /tmat2 6 array def /dif 3 array def
/asub {/ind2 exch def /ind1 exch def dup dup
  ind1 get exch ind2 get sub exch } bdef
/tri_to_matrix {
  2 0 asub 3 1 asub 4 0 asub 5 1 asub
  dup 0 get exch 1 get 7 -1 roll astore } bdef
/compute_transform {
  dmat dtri tri_to_matrix tmat1 invertmatrix 
  smat stri tri_to_matrix tmat2 concatmatrix } bdef
/ds {stri astore pop} bdef
/dt {dtri astore pop} bdef
/db {2 copy /cols xdef /rows xdef mul dup 3 mul string
  currentfile 
  3 index 0 eq {/ASCIIHexDecode filter}
  {/ASCII85Decode filter 3 index 2 eq {/RunLengthDecode filter} if }
  ifelse exch readstring pop
  dup 0 3 index getinterval /rbmap xdef
  dup 2 index dup getinterval /gbmap xdef
  1 index dup 2 mul exch getinterval /bbmap xdef pop pop}bdef
/it {gs np dtri aload pop moveto lineto lineto cp c
  cols rows 8 compute_transform 
  rbmap gbmap bbmap true 3 colorimage gr}bdef
/il {newpath moveto lineto stroke}bdef
currentdict end def
%%EndProlog

%%BeginSetup
MathWorks begin

0 cap

end
%%EndSetup

%%Page: 1 1
%%BeginPageSetup
%%PageBoundingBox:   125   215   499   589
MathWorks begin
bpage
%%EndPageSetup

%%BeginObject: obj1
bplot

/dpi2point 12 def
portraitMode 0216 7344 csm

 1293   274  4479  4487 rc
85 dict begin %Colortable dictionary
/c0 { 0.000000 0.000000 0.000000 sr} bdef
/c1 { 1.000000 1.000000 1.000000 sr} bdef
/c2 { 0.900000 0.000000 0.000000 sr} bdef
/c3 { 0.000000 0.820000 0.000000 sr} bdef
/c4 { 0.000000 0.000000 0.800000 sr} bdef
/c5 { 0.910000 0.820000 0.320000 sr} bdef
/c6 { 1.000000 0.260000 0.820000 sr} bdef
/c7 { 0.000000 0.820000 0.820000 sr} bdef
c0
1 j
1 sg
   0    0 6913 5186 rf
6 w
0 4226 4226 0 0 -4226 1464 4615 4 MP
PP
-4226 0 0 4226 4226 0 0 -4226 1464 4615 5 MP stroke
4 w
DO
SO
6 w
0 sg
1464 4615 mt 5690 4615 L
1464 4615 mt 1464  389 L
1464 4615 mt 1464 4572 L
%%IncludeResource: font Helvetica
/Helvetica /ISOLatin1Encoding 120 FMSR

1361 4760 mt 
(-5) s
1886 4615 mt 1886 4572 L
1783 4760 mt 
(-4) s
2309 4615 mt 2309 4572 L
2206 4760 mt 
(-3) s
2731 4615 mt 2731 4572 L
2628 4760 mt 
(-2) s
3154 4615 mt 3154 4572 L
3051 4760 mt 
(-1) s
3577 4615 mt 3577 4572 L
3544 4760 mt 
(0) s
3999 4615 mt 3999 4572 L
3966 4760 mt 
(1) s
4422 4615 mt 4422 4572 L
4389 4760 mt 
(2) s
4844 4615 mt 4844 4572 L
4811 4760 mt 
(3) s
5267 4615 mt 5267 4572 L
5234 4760 mt 
(4) s
5690 4615 mt 5690 4572 L
5657 4760 mt 
(5) s
1464 4615 mt 1506 4615 L
1293 4659 mt 
(-5) s
1464 4192 mt 1506 4192 L
1293 4236 mt 
(-4) s
1464 3769 mt 1506 3769 L
1293 3813 mt 
(-3) s
1464 3347 mt 1506 3347 L
1293 3391 mt 
(-2) s
1464 2924 mt 1506 2924 L
1293 2968 mt 
(-1) s
1464 2502 mt 1506 2502 L
1363 2546 mt 
(0) s
1464 2079 mt 1506 2079 L
1363 2123 mt 
(1) s
1464 1656 mt 1506 1656 L
1363 1700 mt 
(2) s
1464 1234 mt 1506 1234 L
1363 1278 mt 
(3) s
1464  811 mt 1506  811 L
1363  855 mt 
(4) s
1464  389 mt 1506  389 L
1363  433 mt 
(5) s
gs 1464 389 4227 4227 rc
-264 0 1728 389 2 MP stroke
264 0 1464 4615 2 MP stroke
-265 0 5690 389 2 MP stroke
0 -265 5690 4615 2 MP stroke
0 264 1464 389 2 MP stroke
0 265 1464 4350 2 MP stroke
265 0 5425 4615 2 MP stroke
0 264 1464 917 2 MP stroke
264 0 4369 4615 2 MP stroke
0 -264 5690 1709 2 MP stroke
-264 0 2784 389 2 MP stroke
264 0 4633 4615 2 MP stroke
0 -264 5690 1445 2 MP stroke
-264 0 2520 389 2 MP stroke
-264 0 3312 389 2 MP stroke
264 0 3841 4615 2 MP stroke
0 -264 5690 2237 2 MP stroke
0 -264 5690 653 2 MP stroke
-264 0 3048 389 2 MP stroke
264 0 4105 4615 2 MP stroke
0 -264 5690 1973 2 MP stroke
0 -264 5690 3822 2 MP stroke
264 0 2256 4615 2 MP stroke
-264 0 4897 389 2 MP stroke
264 0 2784 4615 2 MP stroke
0 -264 5690 3294 2 MP stroke
-264 0 4369 389 2 MP stroke
0 264 1464 3294 2 MP stroke
0 -265 5690 2502 2 MP stroke
-265 0 3577 389 2 MP stroke
0 264 1464 2502 2 MP stroke
264 0 3577 4615 2 MP stroke
0 264 1464 3558 2 MP stroke
0 264 1464 653 2 MP stroke
265 0 3312 4615 2 MP stroke
-264 0 3841 389 2 MP stroke
-264 0 5161 389 2 MP stroke
264 0 1992 4615 2 MP stroke
0 -264 5690 4086 2 MP stroke
0 264 1464 4086 2 MP stroke
0 -264 5690 3030 2 MP stroke
0 264 1464 3030 2 MP stroke
0 -264 5690 2766 2 MP stroke
264 0 3048 4615 2 MP stroke
-264 0 4105 389 2 MP stroke
0 264 1464 1973 2 MP stroke
0 -264 5690 3558 2 MP stroke
-264 0 4633 389 2 MP stroke
264 0 2520 4615 2 MP stroke
0 264 1464 1181 2 MP stroke
264 0 5161 4615 2 MP stroke
0 -264 5690 917 2 MP stroke
-264 0 1992 389 2 MP stroke
0 264 1464 1709 2 MP stroke
0 265 1464 2237 2 MP stroke
0 264 1464 2766 2 MP stroke
0 264 1464 3822 2 MP stroke
-264 0 5425 389 2 MP stroke
0 -264 5690 4350 2 MP stroke
264 0 1728 4615 2 MP stroke
0 -264 5690 1181 2 MP stroke
264 0 4897 4615 2 MP stroke
-264 0 2256 389 2 MP stroke
0 264 1464 1445 2 MP stroke
226 226 1464 389 2 MP stroke
-216 217 1680 4398 2 MP stroke
44 221 5425 389 2 MP stroke
224 223 5466 4392 2 MP stroke
109 -225 2405 4406 2 MP stroke
-221 -107 5481 3673 2 MP stroke
236 110 1676 3440 2 MP stroke
38 -226 1690 615 2 MP stroke
108 -221 4641 818 2 MP stroke
-41 223 5466 4392 2 MP stroke
181 134 4012 4145 2 MP stroke
170 -127 2998 4411 2 MP stroke
101 210 3739 1418 2 MP stroke
-12 285 3085 3840 2 MP stroke
-102 -247 2514 4181 2 MP stroke
-212 145 2124 3405 2 MP stroke
8 -210 1912 3550 2 MP stroke
-256 -58 5690 2502 2 MP stroke
-107 -183 4981 2786 2 MP stroke
55 -259 3577 4615 2 MP stroke
-119 243 3426 3593 2 MP stroke
-56 258 3577 389 2 MP stroke
56 -264 3979 2238 2 MP stroke
224 150 3703 2964 2 MP stroke
207 -19 1933 2066 2 MP stroke
-102 266 2512 2656 2 MP stroke
4 215 2841 3251 2 MP stroke
-87 -284 4023 2785 2 MP stroke
-52 254 4087 1720 2 MP stroke
-208 11 2676 1115 2 MP stroke
-250 100 5260 3566 2 MP stroke
148 -226 1942 1103 2 MP stroke
97 252 4641 818 2 MP stroke
-196 -113 3107 2689 2 MP stroke
67 204 4036 1133 2 MP stroke
212 -83 3121 1060 2 MP stroke
-129 -218 3250 1278 2 MP stroke
47 -251 3827 4025 2 MP stroke
-255 58 1719 2444 2 MP stroke
81 162 1638 2282 2 MP stroke
-224 -40 2512 2656 2 MP stroke
72 222 2440 2434 2 MP stroke
248 -70 4402 2990 2 MP stroke
79 -212 5265 3092 2 MP stroke
-237 -153 2688 1994 2 MP stroke
33 -281 3146 2209 2 MP stroke
28 -285 2096 3690 2 MP stroke
-190 101 2286 3589 2 MP stroke
-75 286 3073 4125 2 MP stroke
-12 -191 3180 4475 2 MP stroke
16 193 3973 528 2 MP stroke
-72 -226 5074 1299 2 MP stroke
221 -221 5469 610 2 MP stroke
-221 -43 5690 653 2 MP stroke
226 -38 1464 653 2 MP stroke
261 102 2124 659 2 MP stroke
-224 42 5690 4350 2 MP stroke
-244 -125 5021 4341 2 MP stroke
-48 -217 1728 4615 2 MP stroke
96 -189 1694 4068 2 MP stroke
-37 -212 4026 933 2 MP stroke
219 135 4360 1865 2 MP stroke
-118 217 4199 3288 2 MP stroke
-171 -187 2451 1841 2 MP stroke
-167 184 4700 1576 2 MP stroke
298 93 4440 977 2 MP stroke
-81 -214 4521 1191 2 MP stroke
-188 -168 4506 3627 2 MP stroke
-91 301 5101 3365 2 MP stroke
214 -89 4887 3454 2 MP stroke
-296 -84 2708 4018 2 MP stroke
172 -124 3405 2626 2 MP stroke
26 223 3577 2502 2 MP stroke
164 -204 3241 2830 2 MP stroke
242 3 2899 1573 2 MP stroke
-182 -137 3023 3388 2 MP stroke
-34 221 3155 839 2 MP stroke
-258 -57 4451 4336 2 MP stroke
47 281 4404 4055 2 MP stroke
-48 278 5401 1607 2 MP stroke
-23 208 2028 1676 2 MP stroke
-52 -252 1660 2077 2 MP stroke
-139 192 1799 1885 2 MP stroke
151 167 3676 3858 2 MP stroke
-198 84 3874 3774 2 MP stroke
-186 174 2599 3239 2 MP stroke
196 53 2403 3186 2 MP stroke
207 56 3015 3591 2 MP stroke
-145 170 5348 3861 2 MP stroke
174 149 4939 730 2 MP stroke
69 166 1625 3902 2 MP stroke
170 -101 4185 803 2 MP stroke
-74 -191 1756 3250 2 MP stroke
149 -299 4501 3219 2 MP stroke
-119 -171 4318 3459 2 MP stroke
-222 46 4199 3288 2 MP stroke
-59 -220 3739 1418 2 MP stroke
-10 -200 4036 1133 2 MP stroke
-117 260 2585 866 2 MP stroke
-173 105 4533 1760 2 MP stroke
39 227 4360 1865 2 MP stroke
116 214 1693 2666 2 MP stroke
166 -140 1809 2880 2 MP stroke
-164 273 5265 3092 2 MP stroke
-127 -179 5471 3059 2 MP stroke
192 -1 5344 2880 2 MP stroke
60 -210 2599 3239 2 MP stroke
-52 -268 3549 2189 2 MP stroke
187 91 3497 1921 2 MP stroke
-203 82 2128 497 2 MP stroke
78 305 1864 798 2 MP stroke
-77 -204 5579 1054 2 MP stroke
-128 260 1864 798 2 MP stroke
205 -77 5023 4504 2 MP stroke
-182 41 3179 1928 2 MP stroke
95 160 3084 1768 2 MP stroke
-272 -174 4199 3288 2 MP stroke
327 -9 3927 3114 2 MP stroke
-23 236 4425 2754 2 MP stroke
-43 263 3979 2238 2 MP stroke
3 221 2911 2576 2 MP stroke
-298 63 3405 2626 2 MP stroke
63 -190 4425 2754 2 MP stroke
172 -149 4023 2785 2 MP stroke
-130 -226 2440 2434 2 MP stroke
135 181 3333 977 2 MP stroke
83 -301 3250 1278 2 MP stroke
117 -206 2742 2605 2 MP stroke
-169 29 2911 2576 2 MP stroke
-99 220 4186 1500 2 MP stroke
-162 -184 2286 3589 2 MP stroke
-127 176 2413 3413 2 MP stroke
-205 92 2656 1749 2 MP stroke
-1 -280 2451 1841 2 MP stroke
175 -85 2118 1491 2 MP stroke
-74 -212 4793 2057 2 MP stroke
123 212 4887 3454 2 MP stroke
-291 -87 5010 3666 2 MP stroke
39 221 5164 3810 2 MP stroke
217 -121 4521 1191 2 MP stroke
-92 295 4738 1070 2 MP stroke
228 -35 4885 914 2 MP stroke
-212 122 2624 3812 2 MP stroke
-91 243 2142 3936 2 MP stroke
213 -86 1929 4022 2 MP stroke
243 -176 2656 1749 2 MP stroke
-100 -239 3703 2964 2 MP stroke
-118 -252 3582 3419 2 MP stroke
44 248 1564 1577 2 MP stroke
-22 -209 5148 1885 2 MP stroke
227 209 5126 1676 2 MP stroke
209 -21 4195 4076 2 MP stroke
2 -203 4193 4279 2 MP stroke
-211 224 4404 4055 2 MP stroke
150 128 2656 657 2 MP stroke
71 -209 2585 866 2 MP stroke
-38 218 2906 1105 2 MP stroke
-57 234 2716 2795 2 MP stroke
-208 -81 2220 3018 2 MP stroke
26 222 5434 2444 2 MP stroke
-176 -222 5690 2502 2 MP stroke
239 -23 3521 647 2 MP stroke
-220 174 3577 389 2 MP stroke
229 164 1464 2502 2 MP stroke
-239 23 3632 4356 2 MP stroke
219 -175 3577 4615 2 MP stroke
-83 -235 4733 3155 2 MP stroke
-16 266 4666 2654 2 MP stroke
241 -100 4425 2754 2 MP stroke
-225 -166 4650 2920 2 MP stroke
133 -188 5348 3861 2 MP stroke
-209 115 5690 3558 2 MP stroke
18 -226 5481 3673 2 MP stroke
189 128 2216 4278 2 MP stroke
-115 -209 2520 4615 2 MP stroke
229 18 2405 4406 2 MP stroke
-226 148 1690 3674 2 MP stroke
-190 -133 4939 730 2 MP stroke
116 208 4633 389 2 MP stroke
-227 -18 4749 597 2 MP stroke
-289 37 3015 3591 2 MP stroke
-84 -206 2708 4018 2 MP stroke
-209 79 4986 4137 2 MP stroke
-207 -211 4637 4018 2 MP stroke
239 -23 1840 1322 2 MP stroke
185 135 2272 1196 2 MP stroke
-162 165 5035 1491 2 MP stroke
-83 275 5396 1047 2 MP stroke
-144 -186 4179 2160 2 MP stroke
185 5 4035 1974 2 MP stroke
-129 215 3236 2474 2 MP stroke
200 72 3036 2402 2 MP stroke
-71 -287 3107 2689 2 MP stroke
214 57 4579 2000 2 MP stroke
-179 158 4793 2057 2 MP stroke
-255 141 4087 1720 2 MP stroke
50 220 3927 3114 2 MP stroke
-223 -29 3977 3334 2 MP stroke
198 187 3863 3539 2 MP stroke
191 25 3684 2012 2 MP stroke
-17 227 2009 4388 2 MP stroke
-239 -4 1847 4233 2 MP stroke
190 198 1464 653 2 MP stroke
235 -36 1690 615 2 MP stroke
19 -234 5142 623 2 MP stroke
33 240 5469 610 2 MP stroke
237 21 5453 4065 2 MP stroke
-238 35 5466 4392 2 MP stroke
184 140 1912 3550 2 MP stroke
-90 -265 3236 2474 2 MP stroke
-87 218 2946 2181 2 MP stroke
202 54 3380 3365 2 MP stroke
-84 198 3464 3167 2 MP stroke
184 236 3393 4379 2 MP stroke
-106 208 3499 4171 2 MP stroke
216 89 3283 4082 2 MP stroke
-183 -235 3760 624 2 MP stroke
110 -222 3650 846 2 MP stroke
-198 -242 3283 4082 2 MP stroke
-225 -95 3393 4379 2 MP stroke
110 297 3283 4082 2 MP stroke
-159 -201 5260 3566 2 MP stroke
273 -89 5101 3365 2 MP stroke
176 130 4893 3006 2 MP stroke
-201 159 4641 818 2 MP stroke
-85 -275 4440 977 2 MP stroke
-136 194 4440 977 2 MP stroke
194 -163 2514 4181 2 MP stroke
110 258 2708 4018 2 MP stroke
-219 18 2927 4000 2 MP stroke
146 -228 2708 4018 2 MP stroke
-164 164 5469 610 2 MP stroke
166 74 5303 536 2 MP stroke
-184 161 5161 389 2 MP stroke
167 -165 1680 4398 2 MP stroke
-169 -72 1849 4470 2 MP stroke
184 -162 1992 4615 2 MP stroke
-171 -165 5466 4392 2 MP stroke
-73 164 5539 4228 2 MP stroke
-162 -184 5690 4086 2 MP stroke
-153 -165 1847 4233 2 MP stroke
235 -46 1694 4068 2 MP stroke
209 -121 3467 3979 2 MP stroke
-2 288 3676 3858 2 MP stroke
-134 129 2050 2259 2 MP stroke
-77 189 2310 2208 2 MP stroke
211 48 2286 3589 2 MP stroke
10 -187 2276 3776 2 MP stroke
-127 -175 2624 3812 2 MP stroke
-261 -46 3594 1023 2 MP stroke
-3 -254 3155 839 2 MP stroke
268 -47 4346 2262 2 MP stroke
157 128 4061 3726 2 MP stroke
11 235 3863 3539 2 MP stroke
211 -96 3652 3635 2 MP stroke
-222 -139 3874 3774 2 MP stroke
-229 -7 2539 2215 2 MP stroke
90 -212 2050 2259 2 MP stroke
-260 51 2310 2208 2 MP stroke
-316 -18 5690 3294 2 MP stroke
219 235 5471 3059 2 MP stroke
218 29 1464 3030 2 MP stroke
-218 235 1682 3059 2 MP stroke
63 215 2012 2937 2 MP stroke
-197 -69 2075 3152 2 MP stroke
-194 206 4894 2219 2 MP stroke
280 4 4614 2215 2 MP stroke
130 -193 4793 2057 2 MP stroke
222 -195 2646 1518 2 MP stroke
-253 -55 2899 1573 2 MP stroke
16 -242 2883 1815 2 MP stroke
185 195 2899 1573 2 MP stroke
49 -273 5056 2528 2 MP stroke
205 0 5148 1885 2 MP stroke
-134 185 5353 1885 2 MP stroke
-230 10 2906 1105 2 MP stroke
175 -103 2868 1323 2 MP stroke
109 234 3754 3305 2 MP stroke
-281 -120 3863 3539 2 MP stroke
-58 -197 3484 3790 2 MP stroke
206 -116 3936 2501 2 MP stroke
-259 -135 4195 2636 2 MP stroke
53 251 4142 2385 2 MP stroke
-210 -46 4352 2431 2 MP stroke
204 -123 4142 2385 2 MP stroke
151 -154 3680 1198 2 MP stroke
-205 -81 3885 1279 2 MP stroke
-250 -43 4353 1380 2 MP stroke
201 -166 4103 1337 2 MP stroke
-215 -48 4861 1413 2 MP stroke
228 -141 4646 1365 2 MP stroke
125 174 4521 1191 2 MP stroke
-293 15 4646 1365 2 MP stroke
46 -204 4673 3783 2 MP stroke
-194 -21 4867 3804 2 MP stroke
148 225 4719 3579 2 MP stroke
-19 184 4906 3270 2 MP stroke
218 72 3082 2938 2 MP stroke
17 -207 3065 3145 2 MP stroke
-235 135 3300 3010 2 MP stroke
-237 -21 3831 1044 2 MP stroke
-182 186 3680 1198 2 MP stroke
-104 243 3603 2725 2 MP stroke
-115 260 3936 2501 2 MP stroke
75 -258 4981 2786 2 MP stroke
-198 47 5179 2739 2 MP stroke
224 -34 4700 2425 2 MP stroke
-174 -178 4874 2603 2 MP stroke
229 -100 1464 2766 2 MP stroke
-76 213 1693 2666 2 MP stroke
26 -222 1693 2666 2 MP stroke
184 121 1719 2444 2 MP stroke
210 102 5250 2564 2 MP stroke
230 -164 5460 2666 2 MP stroke
99 229 4402 2990 2 MP stroke
-178 86 4709 3360 2 MP stroke
-189 -83 2288 2616 2 MP stroke
111 -188 2177 2804 2 MP stroke
122 306 2288 2616 2 MP stroke
30 226 3468 1158 2 MP stroke
218 -120 3250 1278 2 MP stroke
25 -243 3473 1627 2 MP stroke
-173 52 3646 1575 2 MP stroke
-135 -163 2140 2047 2 MP stroke
-98 182 2238 1865 2 MP stroke
233 -19 2005 1884 2 MP stroke
277 69 1751 1607 2 MP stroke
-229 209 2028 1676 2 MP stroke
-26 248 4430 3807 2 MP stroke
-186 -201 4404 4055 2 MP stroke
-185 -120 4012 4145 2 MP stroke
205 -82 3827 4025 2 MP stroke
253 20 4873 1656 2 MP stroke
-203 188 5126 1676 2 MP stroke
-87 -209 5105 2255 2 MP stroke
-114 185 5219 2070 2 MP stroke
78 271 2099 2533 2 MP stroke
-196 -24 1878 3083 2 MP stroke
281 -73 5179 2739 2 MP stroke
-116 214 5460 2666 2 MP stroke
160 151 4981 2786 2 MP stroke
-248 69 5141 2937 2 MP stroke
111 -194 5002 1073 2 MP stroke
-201 -57 5203 1130 2 MP stroke
-192 105 5305 774 2 MP stroke
29 -256 5113 879 2 MP stroke
82 -211 1847 4233 2 MP stroke
122 157 1929 4022 2 MP stroke
179 -70 1917 3760 2 MP stroke
-225 -176 2142 3936 2 MP stroke
193 100 5010 3931 2 MP stroke
-217 106 5203 4031 2 MP stroke
-92 -196 5295 4227 2 MP stroke
250 34 5203 4031 2 MP stroke
-51 -192 2141 1069 2 MP stroke
-226 -79 2090 877 2 MP stroke
-34 218 2124 659 2 MP stroke
-88 220 4981 2786 2 MP stroke
183 8 4798 2778 2 MP stroke
160 -149 4733 3155 2 MP stroke
13 264 4893 3006 2 MP stroke
295 -116 2090 877 2 MP stroke
-237 -87 2327 964 2 MP stroke
186 -105 2141 1069 2 MP stroke
-131 -127 2272 1196 2 MP stroke
109 -188 3179 1928 2 MP stroke
-156 -120 3335 2048 2 MP stroke
-185 113 3473 1627 2 MP stroke
165 132 3308 1495 2 MP stroke
-35 -204 5021 4341 2 MP stroke
309 90 4986 4137 2 MP stroke
-24 206 5010 3931 2 MP stroke
-151 -136 4986 4137 2 MP stroke
180 135 2818 4276 2 MP stroke
34 -339 2784 4615 2 MP stroke
-214 204 2998 4411 2 MP stroke
-200 -110 4355 702 2 MP stroke
-14 313 4369 389 2 MP stroke
214 -203 4155 592 2 MP stroke
167 178 4353 1380 2 MP stroke
42 230 4318 1635 2 MP stroke
231 -85 4087 1720 2 MP stroke
-157 -161 3309 746 2 MP stroke
104 196 3048 389 2 MP stroke
153 -160 2895 549 2 MP stroke
-104 -197 4105 4615 2 MP stroke
-145 144 4250 4471 2 MP stroke
-197 104 5690 1973 2 MP stroke
145 148 5545 1825 2 MP stroke
196 104 1464 1973 2 MP stroke
-196 160 1660 2077 2 MP stroke
273 -11 1660 2077 2 MP stroke
-186 66 2946 2181 2 MP stroke
258 187 2688 1994 2 MP stroke
-72 -253 2760 2247 2 MP stroke
221 32 2539 2215 2 MP stroke
-199 79 3082 2938 2 MP stroke
224 -12 2659 3029 2 MP stroke
-182 -222 2841 3251 2 MP stroke
-229 9 2726 3628 2 MP stroke
-202 129 3217 3462 2 MP stroke
-19 -269 4719 1845 2 MP stroke
13 202 4520 1558 2 MP stroke
202 -77 4318 1635 2 MP stroke
-215 -125 4533 1760 2 MP stroke
268 -19 4238 3646 2 MP stroke
-213 13 4531 3446 2 MP stroke
30 227 4501 3219 2 MP stroke
183 -240 4318 3459 2 MP stroke
46 228 3380 3365 2 MP stroke
163 -97 3217 3462 2 MP stroke
161 -199 2854 3790 2 MP stroke
70 249 3015 3591 2 MP stroke
-37 -205 2636 3444 2 MP stroke
-205 193 2841 3251 2 MP stroke
242 12 2599 3239 2 MP stroke
7 -264 2403 3186 2 MP stroke
-256 157 2659 3029 2 MP stroke
-195 -187 3744 2376 2 MP stroke
167 -126 3577 2502 2 MP stroke
-176 -81 3753 2583 2 MP stroke
-8 233 3840 1628 2 MP stroke
-143 156 3640 1765 2 MP stroke
167 138 3473 1627 2 MP stroke
-24 -294 3497 1921 2 MP stroke
-224 64 3549 2189 2 MP stroke
214 141 3335 2048 2 MP stroke
-162 127 3497 1921 2 MP stroke
209 181 3288 1740 2 MP stroke
-47 -308 3335 2048 2 MP stroke
-191 -111 5690 3558 2 MP stroke
191 -153 5499 3447 2 MP stroke
125 171 5374 3276 2 MP stroke
114 -290 5260 3566 2 MP stroke
-239 119 5499 3447 2 MP stroke
292 -44 1464 3294 2 MP stroke
-212 -146 1676 3440 2 MP stroke
14 234 1676 3440 2 MP stroke
212 -118 1464 3558 2 MP stroke
-226 -116 1690 3674 2 MP stroke
-111 190 4633 389 2 MP stroke
-153 -190 4522 579 2 MP stroke
167 -123 4355 702 2 MP stroke
-286 -116 4641 818 2 MP stroke
119 239 4522 579 2 MP stroke
114 -191 2520 4615 2 MP stroke
150 191 2634 4424 2 MP stroke
-184 148 2818 4276 2 MP stroke
304 95 2514 4181 2 MP stroke
-120 -243 2634 4424 2 MP stroke
24 -246 3283 4082 2 MP stroke
-184 103 3467 3979 2 MP stroke
-192 -68 3676 3858 2 MP stroke
24 223 3652 3635 2 MP stroke
168 -155 3484 3790 2 MP stroke
-212 -9 1840 1322 2 MP stroke
108 -255 1628 1313 2 MP stroke
-164 132 1628 1313 2 MP stroke
-165 132 5690 1181 2 MP stroke
212 -9 5313 1322 2 MP stroke
-88 -285 5401 1607 2 MP stroke
-124 294 5525 1313 2 MP stroke
132 164 2256 389 2 MP stroke
3 -208 2385 761 2 MP stroke
-271 104 2656 657 2 MP stroke
268 104 2388 553 2 MP stroke
-144 -177 4897 4615 2 MP stroke
-24 222 4777 4216 2 MP stroke
193 14 4584 4202 2 MP stroke
206 45 1736 1058 2 MP stroke
-104 -264 1840 1322 2 MP stroke
-102 219 1942 1103 2 MP stroke
199 -34 1942 1103 2 MP stroke
-137 -196 2079 1299 2 MP stroke
-62 230 2141 1069 2 MP stroke
129 -169 5074 1299 2 MP stroke
110 192 5203 1130 2 MP stroke
-193 83 5396 1047 2 MP stroke
283 168 5113 879 2 MP stroke
-90 -251 5203 1130 2 MP stroke
-32 -245 2688 1994 2 MP stroke
227 66 2656 1749 2 MP stroke
10 231 2646 1518 2 MP stroke
196 -43 2450 1561 2 MP stroke
-206 -188 2656 1749 2 MP stroke
202 24 3821 2761 2 MP stroke
-138 142 4023 2785 2 MP stroke
-119 -166 4142 2951 2 MP stroke
229 30 4023 2785 2 MP stroke
200 105 2385 761 2 MP stroke
58 -203 2327 964 2 MP stroke
-258 98 2585 866 2 MP stroke
-43 171 2806 785 2 MP stroke
221 -81 2585 866 2 MP stroke
-97 -179 2028 1676 2 MP stroke
-180 110 1931 1497 2 MP stroke
91 175 1840 1322 2 MP stroke
89 -285 1751 1607 2 MP stroke
-91 175 5313 1322 2 MP stroke
239 23 5074 1299 2 MP stroke
-148 -198 5222 1497 2 MP stroke
179 110 5222 1497 2 MP stroke
-275 69 5401 1607 2 MP stroke
-214 -8 2654 2442 2 MP stroke
115 227 2539 2215 2 MP stroke
99 -219 2440 2434 2 MP stroke
207 37 2233 2397 2 MP stroke
-55 -219 2288 2616 2 MP stroke
-152 182 2440 2434 2 MP stroke
195 -179 2688 1994 2 MP stroke
-309 25 2997 1969 2 MP stroke
51 -212 2946 2181 2 MP stroke
149 240 2997 1969 2 MP stroke
186 -89 4032 3943 2 MP stroke
-23 222 4218 3854 2 MP stroke
20 -208 4218 3854 2 MP stroke
-212 47 4430 3807 2 MP stroke
192 161 4238 3646 2 MP stroke
-95 -182 5018 2046 2 MP stroke
225 21 4923 1864 2 MP stroke
-204 -19 4923 1864 2 MP stroke
50 208 4873 1656 2 MP stroke
154 -189 4719 1845 2 MP stroke
-42 211 2280 1654 2 MP stroke
-210 -189 2238 1865 2 MP stroke
-170 -161 2310 2208 2 MP stroke
-112 166 2422 2042 2 MP stroke
282 -5 2140 2047 2 MP stroke
93 162 4211 1009 2 MP stroke
175 -124 4036 1133 2 MP stroke
-268 -38 4304 1171 2 MP stroke
217 20 4304 1171 2 MP stroke
-49 -209 4353 1380 2 MP stroke
-168 189 4521 1191 2 MP stroke
-146 128 3989 721 2 MP stroke
229 97 3760 624 2 MP stroke
-83 -225 3843 849 2 MP stroke
193 3 3650 846 2 MP stroke
-181 -198 3831 1044 2 MP stroke
145 -134 2075 3152 2 MP stroke
-155 -93 2230 3245 2 MP stroke
-43 -214 2220 3018 2 MP stroke
-190 96 2410 2922 2 MP stroke
233 118 2177 2804 2 MP stroke
-167 -222 2883 3017 2 MP stroke
-31 220 2914 2797 2 MP stroke
193 -108 2914 2797 2 MP stroke
-168 -141 3082 2938 2 MP stroke
-222 4 3307 3836 2 MP stroke
85 189 3222 3647 2 MP stroke
137 -193 3085 3840 2 MP stroke
-158 160 3085 3840 2 MP stroke
231 50 2854 3790 2 MP stroke
-73 -210 2927 4000 2 MP stroke
55 -183 4199 3288 2 MP stroke
-302 69 4501 3219 2 MP stroke
247 114 4254 3105 2 MP stroke
-112 -154 4254 3105 2 MP stroke
-148 115 4402 2990 2 MP stroke
-174 -81 3577 2502 2 MP stroke
28 313 3549 2189 2 MP stroke
146 -232 3403 2421 2 MP stroke
78 168 3325 2253 2 MP stroke
89 -221 3236 2474 2 MP stroke
13 -189 4861 1413 2 MP stroke
200 75 4874 1224 2 MP stroke
-136 -154 4874 1224 2 MP stroke
-128 151 5002 1073 2 MP stroke
36 -235 4637 4018 2 MP stroke
162 218 4673 3783 2 MP stroke
143 -138 4867 3804 2 MP stroke
10 218 2636 1300 2 MP stroke
-189 -187 2646 1518 2 MP stroke
-170 93 2450 1561 2 MP stroke
13 -248 2280 1654 2 MP stroke
205 76 2868 1323 2 MP stroke
-31 -250 2899 1573 2 MP stroke
-174 174 3073 1399 2 MP stroke
-68 -177 3141 1576 2 MP stroke
235 96 3073 1399 2 MP stroke
67 -188 5161 4615 2 MP stroke
197 188 5228 4427 2 MP stroke
-207 -86 5228 4427 2 MP stroke
-67 200 5295 4227 2 MP stroke
274 -114 5021 4341 2 MP stroke
-188 -67 5690 917 2 MP stroke
188 -197 5502 850 2 MP stroke
-106 197 5502 850 2 MP stroke
197 76 5305 774 2 MP stroke
-91 -273 5396 1047 2 MP stroke
-67 190 1992 389 2 MP stroke
-197 -190 1925 579 2 MP stroke
199 80 1925 579 2 MP stroke
61 -219 1864 798 2 MP stroke
-260 139 2124 659 2 MP stroke
-210 53 1864 798 2 MP stroke
174 183 1690 615 2 MP stroke
36 -236 1654 851 2 MP stroke
190 -66 1464 917 2 MP stroke
-108 -137 1572 1054 2 MP stroke
-178 -90 4666 2654 2 MP stroke
-34 229 4700 2425 2 MP stroke
212 -139 4488 2564 2 MP stroke
157 -205 4195 2636 2 MP stroke
-293 72 4488 2564 2 MP stroke
-298 97 2514 4181 2 MP stroke
246 92 2268 4089 2 MP stroke
-126 -153 2268 4089 2 MP stroke
-144 155 2412 3934 2 MP stroke
270 -2 2142 3936 2 MP stroke
-184 -51 5348 3861 2 MP stroke
88 295 5260 3566 2 MP stroke
96 -244 5164 3810 2 MP stroke
-154 121 5164 3810 2 MP stroke
154 144 5010 3666 2 MP stroke
0 -265 5010 3931 2 MP stroke
-54 184 4939 730 2 MP stroke
298 -88 4641 818 2 MP stroke
-244 -96 4885 914 2 MP stroke
117 159 4885 914 2 MP stroke
147 -156 4738 1070 2 MP stroke
-264 -3 5002 1073 2 MP stroke
41 -197 3744 2376 2 MP stroke
-235 138 3979 2238 2 MP stroke
200 -78 3979 2238 2 MP stroke
-163 -147 4142 2385 2 MP stroke
-37 225 4179 2160 2 MP stroke
175 119 2980 720 2 MP stroke
-186 75 3155 839 2 MP stroke
154 -93 3155 839 2 MP stroke
-178 -138 3333 977 2 MP stroke
-84 -224 2497 3637 2 MP stroke
-139 193 2636 3444 2 MP stroke
223 31 2413 3413 2 MP stroke
10 227 2403 3186 2 MP stroke
111 160 2784 389 2 MP stroke
132 -100 2652 489 2 MP stroke
-172 135 3152 585 2 MP stroke
257 36 2895 549 2 MP stroke
-119 -144 4369 4615 2 MP stroke
-131 103 4500 4512 2 MP stroke
57 192 4193 4279 2 MP stroke
192 -139 4001 4418 2 MP stroke
-249 -53 4250 4471 2 MP stroke
-145 116 5690 1709 2 MP stroke
101 132 5589 1577 2 MP stroke
192 -60 5353 1885 2 MP stroke
-140 -192 5493 2077 2 MP stroke
-52 252 5545 1825 2 MP stroke
-191 -60 1799 1885 2 MP stroke
48 278 1751 1607 2 MP stroke
143 -218 1608 1825 2 MP stroke
-144 148 1608 1825 2 MP stroke
144 116 1464 1709 2 MP stroke
39 192 2079 1299 2 MP stroke
148 -198 1931 1497 2 MP stroke
-187 6 2118 1491 2 MP stroke
90 -185 2028 1676 2 MP stroke
-252 22 2280 1654 2 MP stroke
162 163 2118 1491 2 MP stroke
-91 -185 5126 1676 2 MP stroke
-96 179 5222 1497 2 MP stroke
187 6 5035 1491 2 MP stroke
-174 -78 5035 1491 2 MP stroke
-39 192 5074 1299 2 MP stroke
213 -114 4861 1413 2 MP stroke
180 86 2096 3690 2 MP stroke
-46 -246 2142 3936 2 MP stroke
-134 160 2276 3776 2 MP stroke
-136 -158 2412 3934 2 MP stroke
-85 297 2497 3637 2 MP stroke
221 -139 2276 3776 2 MP stroke
218 58 3885 1279 2 MP stroke
93 216 3994 1504 2 MP stroke
154 -124 3840 1628 2 MP stroke
-247 -92 4087 1720 2 MP stroke
-143 -149 2906 1105 2 MP stroke
206 -42 2763 956 2 MP stroke
85 171 2895 549 2 MP stroke
89 -236 2806 785 2 MP stroke
-111 -162 5330 2232 2 MP stroke
-163 155 5493 2077 2 MP stroke
274 7 5219 2070 2 MP stroke
71 185 5148 1885 2 MP stroke
130 -161 5018 2046 2 MP stroke
-201 -24 5219 2070 2 MP stroke
94 156 3405 2812 2 MP stroke
-199 42 3499 2968 2 MP stroke
35 -199 3464 3167 2 MP stroke
-180 19 3644 3148 2 MP stroke
-140 155 4719 1845 2 MP stroke
186 85 4533 1760 2 MP stroke
-46 -240 4579 2000 2 MP stroke
35 215 4579 2000 2 MP stroke
180 -92 4399 2092 2 MP stroke
-215 -123 4614 2215 2 MP stroke
-80 187 4318 3459 2 MP stroke
237 -46 4081 3505 2 MP stroke
-218 34 4081 3505 2 MP stroke
104 171 3977 3334 2 MP stroke
114 -205 3863 3539 2 MP stroke
-204 -65 2124 3405 2 MP stroke
49 253 2075 3152 2 MP stroke
155 -188 1920 3340 2 MP stroke
80 -190 1676 3440 2 MP stroke
-244 100 1920 3340 2 MP stroke
-11 194 2980 720 2 MP stroke
174 -65 2806 785 2 MP stroke
-163 -129 2969 914 2 MP stroke
63 -191 2906 1105 2 MP stroke
152 146 2969 914 2 MP stroke
40 -185 2636 1300 2 MP stroke
-232 -23 2868 1323 2 MP stroke
192 208 2676 1115 2 MP stroke
-87 159 2763 956 2 MP stroke
178 90 2585 866 2 MP stroke
-91 -249 2676 1115 2 MP stroke
164 -75 2293 1406 2 MP stroke
-157 -155 2450 1561 2 MP stroke
-7 230 2457 1331 2 MP stroke
11 -205 2457 1331 2 MP stroke
-179 31 2636 1300 2 MP stroke
168 174 2468 1126 2 MP stroke
156 -174 3426 3593 2 MP stroke
-226 -42 3652 3635 2 MP stroke
70 216 3582 3419 2 MP stroke
-172 114 3754 3305 2 MP stroke
62 -271 3582 3419 2 MP stroke
-32 -192 3499 4171 2 MP stroke
207 167 3467 3979 2 MP stroke
-17 189 3484 3790 2 MP stroke
177 -46 3307 3836 2 MP stroke
-160 -143 3467 3979 2 MP stroke
146 125 2927 4000 2 MP stroke
109 -276 2818 4276 2 MP stroke
-255 151 3073 4125 2 MP stroke
210 -43 3073 4125 2 MP stroke
-95 -159 3168 4284 2 MP stroke
-115 202 3283 4082 2 MP stroke
106 -160 2124 3405 2 MP stroke
-289 -8 2413 3413 2 MP stroke
183 168 2230 3245 2 MP stroke
-173 59 2403 3186 2 MP stroke
183 168 2220 3018 2 MP stroke
-10 -227 2230 3245 2 MP stroke
-151 146 4036 1133 2 MP stroke
205 89 3831 1044 2 MP stroke
-54 -235 3885 1279 2 MP stroke
146 -139 3739 1418 2 MP stroke
-255 -86 3994 1504 2 MP stroke
109 225 3885 1279 2 MP stroke
-10 -219 4719 3579 2 MP stroke
-168 125 4887 3454 2 MP stroke
178 94 4709 3360 2 MP stroke
232 -64 4501 3219 2 MP stroke
-208 -141 4709 3360 2 MP stroke
193 -103 2079 1299 2 MP stroke
-214 -107 2293 1406 2 MP stroke
21 210 2272 1196 2 MP stroke
-196 70 2468 1126 2 MP stroke
141 162 2327 964 2 MP stroke
55 -232 2272 1196 2 MP stroke
45 174 3312 389 2 MP stroke
160 -196 3152 585 2 MP stroke
-205 22 3357 563 2 MP stroke
164 84 3357 563 2 MP stroke
48 -183 3309 746 2 MP stroke
-212 99 3521 647 2 MP stroke
-176 43 5690 2237 2 MP stroke
197 160 5493 2077 2 MP stroke
-21 -203 5514 2280 2 MP stroke
-80 164 5514 2280 2 MP stroke
184 48 5330 2232 2 MP stroke
-104 -212 5434 2444 2 MP stroke
-45 -175 3841 4615 2 MP stroke
-160 197 4001 4418 2 MP stroke
205 -22 3796 4440 2 MP stroke
-164 -84 3796 4440 2 MP stroke
-50 185 3846 4255 2 MP stroke
214 -101 3632 4356 2 MP stroke
-185 50 1823 2232 2 MP stroke
163 155 1660 2077 2 MP stroke
22 -205 1638 2282 2 MP stroke
174 45 1464 2237 2 MP stroke
-174 220 1638 2282 2 MP stroke
2 205 3403 2421 2 MP stroke
167 -53 3236 2474 2 MP stroke
-169 -152 3405 2626 2 MP stroke
198 99 3405 2626 2 MP stroke
0 -186 3405 2812 2 MP stroke
-198 87 3603 2725 2 MP stroke
41 -181 4179 2160 2 MP stroke
179 113 4220 1979 2 MP stroke
-140 114 4360 1865 2 MP stroke
273 145 4087 1720 2 MP stroke
-133 -259 4220 1979 2 MP stroke
150 -87 2410 2922 2 MP stroke
-249 -107 2659 3029 2 MP stroke
99 194 2560 2835 2 MP stroke
-48 -179 2560 2835 2 MP stroke
-156 40 2716 2795 2 MP stroke
204 139 2512 2656 2 MP stroke
102 -184 2624 3812 2 MP stroke
-230 22 2854 3790 2 MP stroke
128 162 2726 3628 2 MP stroke
-90 -184 2726 3628 2 MP stroke
-119 162 2845 3466 2 MP stroke
209 22 2636 3444 2 MP stroke
-195 -95 5101 3365 2 MP stroke
32 229 5069 3136 2 MP stroke
163 -134 4906 3270 2 MP stroke
173 115 4733 3155 2 MP stroke
24 -205 4709 3360 2 MP stroke
-197 90 4906 3270 2 MP stroke
201 -47 2883 1815 2 MP stroke
-114 -154 2997 1969 2 MP stroke
-87 201 3084 1768 2 MP stroke
57 -192 3084 1768 2 MP stroke
-204 28 3288 1740 2 MP stroke
124 155 5141 2937 2 MP stroke
72 -199 5069 3136 2 MP stroke
-196 44 5265 3092 2 MP stroke
206 -33 5265 3092 2 MP stroke
-109 -184 5374 3276 2 MP stroke
-97 217 5471 3059 2 MP stroke
122 -167 1756 3250 2 MP stroke
-164 -90 1920 3340 2 MP stroke
42 257 1878 3083 2 MP stroke
-134 146 2012 2937 2 MP stroke
203 57 1809 2880 2 MP stroke
-69 -203 1878 3083 2 MP stroke
150 -142 3603 2725 2 MP stroke
-218 -36 3821 2761 2 MP stroke
68 178 3753 2583 2 MP stroke
-183 82 3936 2501 2 MP stroke
192 125 3744 2376 2 MP stroke
-9 -207 3753 2583 2 MP stroke
-148 151 3832 1861 2 MP stroke
192 96 3640 1765 2 MP stroke
-44 -247 3684 2012 2 MP stroke
101 167 3684 2012 2 MP stroke
135 -177 3549 2189 2 MP stroke
-236 10 3785 2179 2 MP stroke
65 -180 5471 3059 2 MP stroke
-219 29 5690 3030 2 MP stroke
154 151 5536 2879 2 MP stroke
-154 113 5690 2766 2 MP stroke
230 100 5460 2666 2 MP stroke
-76 -213 5536 2879 2 MP stroke
153 113 1464 2766 2 MP stroke
-153 151 1617 2879 2 MP stroke
192 1 1617 2879 2 MP stroke
-65 -180 1682 3059 2 MP stroke
-127 179 1809 2880 2 MP stroke
30 211 4155 592 2 MP stroke
166 -129 3989 721 2 MP stroke
-196 -82 4185 803 2 MP stroke
-229 32 4440 977 2 MP stroke
255 174 4185 803 2 MP stroke
-72 182 2005 1884 2 MP stroke
206 -1 1799 1885 2 MP stroke
-134 -181 1933 2066 2 MP stroke
110 -166 1823 2232 2 MP stroke
-227 -27 2050 2259 2 MP stroke
117 193 1933 2066 2 MP stroke
166 -110 3846 4255 2 MP stroke
-155 -163 4001 4418 2 MP stroke
-11 273 4012 4145 2 MP stroke
20 -202 4012 4145 2 MP stroke
-183 69 4195 4076 2 MP stroke
163 133 4032 3943 2 MP stroke
-117 -173 2539 2215 2 MP stroke
-149 221 2688 1994 2 MP stroke
266 -48 2422 2042 2 MP stroke
-29 201 2451 1841 2 MP stroke
213 -24 2238 1865 2 MP stroke
-184 -177 2422 2042 2 MP stroke
175 -25 3499 4171 2 MP stroke
-133 -185 3632 4356 2 MP stroke
-42 210 3674 4146 2 MP stroke
153 -121 3674 4146 2 MP stroke
-172 -109 3846 4255 2 MP stroke
19 230 3827 4025 2 MP stroke
93 156 1823 2232 2 MP stroke
104 -212 1719 2444 2 MP stroke
-197 56 1916 2388 2 MP stroke
13 -177 1903 2565 2 MP stroke
183 145 1916 2388 2 MP stroke
129 199 3521 647 2 MP stroke
58 -195 3463 842 2 MP stroke
-130 135 3463 842 2 MP stroke
154 96 3309 746 2 MP stroke
-24 -231 3333 977 2 MP stroke
90 -142 3785 2179 2 MP stroke
-194 -59 3979 2238 2 MP stroke
104 201 3875 2037 2 MP stroke
-43 -176 3875 2037 2 MP stroke
-160 63 4035 1974 2 MP stroke
203 113 3832 1861 2 MP stroke
-184 120 5434 2444 2 MP stroke
198 57 5236 2387 2 MP stroke
-131 -132 5236 2387 2 MP stroke
-94 155 5330 2232 2 MP stroke
225 -23 5105 2255 2 MP stroke
40 168 3177 3294 2 MP stroke
-194 -74 3217 3462 2 MP stroke
-5 -185 3222 3647 2 MP stroke
-204 54 3426 3593 2 MP stroke
209 131 3217 3462 2 MP stroke
-173 -80 4873 1656 2 MP stroke
12 243 4861 1413 2 MP stroke
161 -163 4700 1576 2 MP stroke
-180 -18 4700 1576 2 MP stroke
54 211 4646 1365 2 MP stroke
126 -193 4520 1558 2 MP stroke
76 -180 4430 3807 2 MP stroke
-243 24 4673 3783 2 MP stroke
167 156 4506 3627 2 MP stroke
25 -181 4506 3627 2 MP stroke
-213 48 4719 3579 2 MP stroke
188 133 4531 3446 2 MP stroke
-30 -172 4924 2391 2 MP stroke
-181 136 5105 2255 2 MP stroke
211 36 4894 2219 2 MP stroke
-101 -162 4894 2219 2 MP stroke
-124 173 5018 2046 2 MP stroke
225 -11 4793 2057 2 MP stroke
-190 111 3498 1384 2 MP stroke
248 106 3250 1278 2 MP stroke
-58 -217 3308 1495 2 MP stroke
167 -81 3141 1576 2 MP stroke
-147 -164 3288 1740 2 MP stroke
-20 245 3308 1495 2 MP stroke
-53 184 4637 4018 2 MP stroke
233 -37 4404 4055 2 MP stroke
-180 -147 4584 4202 2 MP stroke
133 -134 4451 4336 2 MP stroke
-302 -102 4753 4438 2 MP stroke
169 236 4584 4202 2 MP stroke
-185 -76 4211 1009 2 MP stroke
26 206 4185 803 2 MP stroke
159 -130 4026 933 2 MP stroke
183 84 3843 849 2 MP stroke
12 -195 3831 1044 2 MP stroke
-195 111 4026 933 2 MP stroke
182 64 2998 4411 2 MP stroke
-50 -204 3048 4615 2 MP stroke
-132 140 3180 4475 2 MP stroke
-132 -140 3312 4615 2 MP stroke
-81 236 3393 4379 2 MP stroke
213 -96 3180 4475 2 MP stroke
-182 -64 4155 592 2 MP stroke
50 203 4105 389 2 MP stroke
132 -139 3973 528 2 MP stroke
132 139 3841 389 2 MP stroke
81 -235 3760 624 2 MP stroke
-213 96 3973 528 2 MP stroke
14 177 5236 2387 2 MP stroke
180 -141 5056 2528 2 MP stroke
-182 75 5056 2528 2 MP stroke
132 137 4924 2391 2 MP stroke
50 -212 4874 2603 2 MP stroke
5 210 1912 3550 2 MP stroke
222 -124 1690 3674 2 MP stroke
-227 -86 1917 3760 2 MP stroke
127 -119 1790 3879 2 MP stroke
-139 -143 1929 4022 2 MP stroke
12 262 1917 3760 2 MP stroke
-56 177 3650 846 2 MP stroke
187 4 3463 842 2 MP stroke
-131 -181 3594 1023 2 MP stroke
86 175 3594 1023 2 MP stroke
126 -135 3468 1158 2 MP stroke
-212 -40 3680 1198 2 MP stroke
-134 136 2233 2397 2 MP stroke
183 138 2050 2259 2 MP stroke
-49 -274 2099 2533 2 MP stroke
196 -32 1903 2565 2 MP stroke
-124 207 2099 2533 2 MP stroke
-179 -44 3325 2253 2 MP stroke
-10 205 3335 2048 2 MP stroke
189 -161 3146 2209 2 MP stroke
-110 193 3146 2209 2 MP stroke
200 28 2946 2181 2 MP stroke
-90 -221 3036 2402 2 MP stroke
110 -136 4142 2951 2 MP stroke
-260 -39 4402 2990 2 MP stroke
150 175 4252 2815 2 MP stroke
-57 -179 4252 2815 2 MP stroke
-173 61 4425 2754 2 MP stroke
230 118 4195 2636 2 MP stroke
182 128 2883 3017 2 MP stroke
42 -234 2841 3251 2 MP stroke
-224 106 3065 3145 2 MP stroke
228 42 3065 3145 2 MP stroke
-80 -162 2256 4615 2 MP stroke
-149 209 2405 4406 2 MP stroke
229 -47 2176 4453 2 MP stroke
-167 -65 2176 4453 2 MP stroke
-40 175 2216 4278 2 MP stroke
207 -110 2009 4388 2 MP stroke
-165 23 1790 3879 2 MP stroke
100 205 1690 3674 2 MP stroke
65 -228 1625 3902 2 MP stroke
161 80 1464 3822 2 MP stroke
-161 184 1625 3902 2 MP stroke
-162 80 5690 3822 2 MP stroke
209 149 5481 3673 2 MP stroke
-47 -229 5528 3902 2 MP stroke
-75 163 5528 3902 2 MP stroke
180 41 5348 3861 2 MP stroke
-105 -204 5453 4065 2 MP stroke
80 161 4897 389 2 MP stroke
148 -208 4749 597 2 MP stroke
-228 47 4977 550 2 MP stroke
165 73 4977 550 2 MP stroke
38 -180 4939 730 2 MP stroke
-203 107 5142 623 2 MP stroke
-76 175 4874 2603 2 MP stroke
208 -51 4666 2654 2 MP stroke
-132 -124 4798 2778 2 MP stroke
148 -142 4650 2920 2 MP stroke
-243 -86 4893 3006 2 MP stroke
95 228 4798 2778 2 MP stroke
134 141 3107 2689 2 MP stroke
25 -249 3082 2938 2 MP stroke
-159 108 3241 2830 2 MP stroke
164 -18 3241 2830 2 MP stroke
-59 -180 3300 3010 2 MP stroke
-105 198 3405 2812 2 MP stroke
38 -198 5141 2937 2 MP stroke
-203 57 5344 2880 2 MP stroke
165 141 5179 2739 2 MP stroke
-71 175 5250 2564 2 MP stroke
194 36 5056 2528 2 MP stroke
-123 -211 5179 2739 2 MP stroke
72 175 1903 2565 2 MP stroke
210 -101 1693 2666 2 MP stroke
-282 -74 1975 2740 2 MP stroke
202 64 1975 2740 2 MP stroke
-37 -197 2012 2937 2 MP stroke
-165 133 2177 2804 2 MP stroke
-122 147 5425 389 2 MP stroke
-142 -147 5303 536 2 MP stroke
161 -87 5142 623 2 MP stroke
-163 -151 5305 774 2 MP stroke
2 238 5303 536 2 MP stroke
-151 -122 5690 4350 2 MP stroke
151 -142 5539 4228 2 MP stroke
86 163 5453 4065 2 MP stroke
158 -162 5295 4227 2 MP stroke
-244 -1 5539 4228 2 MP stroke
121 -145 1728 4615 2 MP stroke
143 145 1849 4470 2 MP stroke
-160 82 2009 4388 2 MP stroke
-2 -237 1849 4470 2 MP stroke
-86 161 1694 4068 2 MP stroke
230 -18 1464 4086 2 MP stroke
-144 -143 1608 4229 2 MP stroke
72 169 1608 4229 2 MP stroke
144 -121 1464 4350 2 MP stroke
-216 -48 1680 4398 2 MP stroke
204 -54 1847 4233 2 MP stroke
-162 -155 2009 4388 2 MP stroke
-42 209 2051 4179 2 MP stroke
-165 -99 2216 4278 2 MP stroke
-52 189 2268 4089 2 MP stroke
217 -90 2051 4179 2 MP stroke
-154 94 3177 3294 2 MP stroke
112 149 3065 3145 2 MP stroke
42 -243 3023 3388 2 MP stroke
-8 203 3023 3388 2 MP stroke
178 -78 2845 3466 2 MP stroke
-170 -125 3015 3591 2 MP stroke
83 163 4103 1337 2 MP stroke
109 -167 3994 1504 2 MP stroke
-192 4 4186 1500 2 MP stroke
167 -120 4186 1500 2 MP stroke
-132 -135 4318 1635 2 MP stroke
-35 255 4353 1380 2 MP stroke
-175 70 5010 3931 2 MP stroke
143 127 4867 3804 2 MP stroke
32 -197 4835 4001 2 MP stroke
198 -17 4637 4018 2 MP stroke
-140 -198 4777 4216 2 MP stroke
-58 215 4835 4001 2 MP stroke
-6 -169 4352 2431 2 MP stroke
174 111 4346 2262 2 MP stroke
-167 -102 4346 2262 2 MP stroke
-53 170 4399 2092 2 MP stroke
220 -68 4179 2160 2 MP stroke
99 152 2760 2247 2 MP stroke
106 -195 2654 2442 2 MP stroke
-205 43 2859 2399 2 MP stroke
177 3 2859 2399 2 MP stroke
-52 -177 2911 2576 2 MP stroke
-125 174 3036 2402 2 MP stroke
-110 -157 3754 3305 2 MP stroke
-173 191 3927 3114 2 MP stroke
283 -34 3644 3148 2 MP stroke
-59 184 3703 2964 2 MP stroke
204 -4 3499 2968 2 MP stroke
-145 -180 3644 3148 2 MP stroke
-30 -179 3073 1399 2 MP stroke
-177 121 3250 1278 2 MP stroke
207 58 3043 1220 2 MP stroke
-137 -115 3043 1220 2 MP stroke
-78 160 3121 1060 2 MP stroke
215 -45 2906 1105 2 MP stroke
183 7 5396 1047 2 MP stroke
-129 -266 5525 1313 2 MP stroke
-54 259 5579 1054 2 MP stroke
111 -137 5579 1054 2 MP stroke
-111 -127 5690 1181 2 MP stroke
2 163 5021 4341 2 MP stroke
268 -97 4753 4438 2 MP stroke
-270 -66 5023 4504 2 MP stroke
138 111 5023 4504 2 MP stroke
126 -111 4897 4615 2 MP stroke
4 -162 2124 659 2 MP stroke
-264 106 2388 553 2 MP stroke
260 56 2128 497 2 MP stroke
-136 -108 2128 497 2 MP stroke
-128 108 2256 389 2 MP stroke
108 -127 1464 1181 2 MP stroke
-164 -132 1628 1313 2 MP stroke
56 259 1572 1054 2 MP stroke
-164 -4 1736 1058 2 MP stroke
82 207 1654 851 2 MP stroke
82 -203 1572 1054 2 MP stroke
-42 -187 3927 3114 2 MP stroke
-215 163 4142 2951 2 MP stroke
257 24 3885 2927 2 MP stroke
-182 37 3885 2927 2 MP stroke
64 166 3821 2761 2 MP stroke
118 -203 3703 2964 2 MP stroke
6 -190 3640 1765 2 MP stroke
-200 137 3840 1628 2 MP stroke
194 53 3646 1575 2 MP stroke
-93 157 3739 1418 2 MP stroke
241 34 3498 1384 2 MP stroke
-148 -191 3646 1575 2 MP stroke
-101 132 5690 1445 2 MP stroke
165 132 5525 1313 2 MP stroke
-64 -264 5589 1577 2 MP stroke
188 -30 5401 1607 2 MP stroke
-144 -218 5545 1825 2 MP stroke
-44 248 5589 1577 2 MP stroke
-187 -30 1751 1607 2 MP stroke
123 294 1628 1313 2 MP stroke
64 -264 1564 1577 2 MP stroke
-100 132 1564 1577 2 MP stroke
100 132 1464 1445 2 MP stroke
132 100 2520 389 2 MP stroke
132 -164 2388 553 2 MP stroke
-264 64 2652 489 2 MP stroke
-4 -168 2656 657 2 MP stroke
-239 108 2895 549 2 MP stroke
243 60 2652 489 2 MP stroke
-133 -103 4633 4615 2 MP stroke
-120 177 4753 4438 2 MP stroke
253 -74 4500 4512 2 MP stroke
49 176 4451 4336 2 MP stroke
201 -135 4250 4471 2 MP stroke
-250 -41 4500 4512 2 MP stroke
168 -58 4352 2431 2 MP stroke
-136 -133 4488 2564 2 MP stroke
-32 191 4520 2373 2 MP stroke
94 -158 4520 2373 2 MP stroke
-180 -52 4700 2425 2 MP stroke
86 210 4614 2215 2 MP stroke
88 163 2654 2442 2 MP stroke
142 -214 2512 2656 2 MP stroke
-230 51 2742 2605 2 MP stroke
26 -190 2716 2795 2 MP stroke
-198 -2 2914 2797 2 MP stroke
172 192 2742 2605 2 MP stroke
116 -107 3177 3294 2 MP stroke
-203 -71 3380 3365 2 MP stroke
87 178 3293 3187 2 MP stroke
7 -177 3293 3187 2 MP stroke
-171 20 3464 3167 2 MP stroke
164 157 3300 3010 2 MP stroke
-177 80 4238 3646 2 MP stroke
157 141 4081 3505 2 MP stroke
20 -221 4061 3726 2 MP stroke
187 -48 3874 3774 2 MP stroke
-158 -169 4032 3943 2 MP stroke
-29 217 4061 3726 2 MP stroke
gr


end %%Color Dict

eplot
%%EndObject

epage
end

showpage

%%Trailer
%%EOF
